<?xml version="1.0" encoding="UTF-8"?>
<!DOCTYPE X3D PUBLIC "ISO//Web3D//DTD X3D 3.0//EN" "http://www.web3d.org/specifications/x3d-3.0.dtd">
<X3D version="3.0" profile="Immersive" xmlns:xsd="http://www.w3.org/2001/XMLSchema-instance" xsd:noNamespaceSchemaLocation="http://www.web3d.org/specifications/x3d-3.0.xsd">
	<head>
		<meta name="filename" content="tower.x3d" />
		<meta name='copyright' content='Copyright (c) AnyLogic North America 2014'/>
	</head>
	<Scene>
		<NavigationInfo headlight="false"
		                visibilityLimit="0.0"
		                type='"EXAMINE", "ANY"'
		                avatarSize="0.25, 1.75, 0.75"
		                />
		<Background DEF="WO_World"
		            groundColor="0.051 0.051 0.051"
		            skyColor="0.051 0.051 0.051"
		            />
		<Transform DEF="MAIN_TRANSFORM"
		           translation="0.000000 0.000000 0.000000"
		           scale="0.05 0.05 0.05"
		           rotation="0.000000 0.707107 0.707107 3.141593"
		           >
			<Transform DEF="group_0_012_TRANSFORM"
			           translation="788.976318 0.000000 -780.708679"
			           scale="40.000000 40.000000 40.000000"
			           rotation="-0.000000 0.707107 0.707107 3.141593"
			           >
				<Transform DEF="group_0_012_ifs_TRANSFORM"
				           translation="0.000002 0.000001 0.000000"
				           scale="1.000000 1.000000 1.000000"
				           rotation="-0.000000 0.000000 0.000000 0.000000"
				           >
					<Group DEF="group_ME_ID81">
						<Shape>
							<Appearance>
								<Material DEF="MA_material"
								          diffuseColor="0.318 0.318 0.318"
								          specularColor="0.401 0.401 0.401"
								          emissiveColor="0.000 0.000 0.000"
								          ambientIntensity="0.333"
								          shininess="0.098"
								          transparency="0.0"
								          />
							</Appearance>
							<IndexedFaceSet solid="true"
							                coordIndex="0 1 2 -1 1 0 3 -1 4 5 6 -1 5 4 7 -1 8 9 10 -1 9 8 11 -1 12 13 14 -1 13 12 15 -1 16 17 18 -1 17 16 19 -1 "
							                >
								<Coordinate DEF="coords_ME_ID81"
								            point="34.645668 23.622049 74.015747 39.370079 23.622049 70.078735 34.645668 23.622049 70.078735 39.370079 23.622049 74.015747 39.370079 23.622049 70.078735 39.370079 15.748030 74.015747 39.370079 15.748030 70.078735 39.370079 23.622049 74.015747 39.370079 23.622049 70.078735 34.645668 15.748030 70.078735 34.645668 23.622049 70.078735 39.370079 15.748030 70.078735 34.645668 23.622049 74.015747 34.645668 15.748030 70.078735 34.645668 15.748030 74.015747 34.645668 23.622049 70.078735 39.370079 15.748030 74.015747 34.645668 15.748030 70.078735 39.370079 15.748030 70.078735 34.645668 15.748030 74.015747 "
								            />
							</IndexedFaceSet>
						</Shape>
					</Group>
				</Transform>
			</Transform>
			<Transform DEF="group_0_011_TRANSFORM"
			           translation="788.976318 0.000000 -780.708679"
			           scale="40.000000 40.000000 40.000000"
			           rotation="-0.000000 0.707107 0.707107 3.141593"
			           >
				<Transform DEF="group_0_011_ifs_TRANSFORM"
				           translation="0.000002 0.000001 0.000000"
				           scale="1.000000 1.000000 1.000000"
				           rotation="-0.000000 0.000000 0.000000 0.000000"
				           >
					<Group DEF="group_ME_ID75">
						<Shape>
							<Appearance>
								<Material DEF="MA_Color_F20"
								          diffuseColor="0.357 0.400 0.318"
								          specularColor="0.401 0.401 0.401"
								          emissiveColor="0.000 0.000 0.000"
								          ambientIntensity="0.333"
								          shininess="0.098"
								          transparency="0.0"
								          />
							</Appearance>
							<IndexedFaceSet solid="true"
							                coordIndex="0 1 2 -1 1 0 3 -1 4 5 6 -1 5 4 7 -1 7 4 8 -1 7 8 9 -1 10 11 12 -1 11 10 13 -1 11 13 8 -1 8 13 14 -1 14 13 15 -1 15 13 16 -1 16 13 17 -1 17 13 18 -1 12 19 20 -1 19 12 11 -1 19 11 6 -1 19 6 5 -1 20 19 9 -1 20 9 21 -1 21 9 8 -1 21 8 14 -1 21 14 22 -1 21 22 23 -1 20 21 18 -1 20 18 13 -1 16 23 22 -1 23 16 17 -1 24 25 26 -1 25 24 27 -1 28 29 30 -1 29 28 31 -1 29 31 32 -1 32 31 33 -1 30 34 35 -1 34 30 29 -1 35 34 33 -1 35 33 31 -1 36 37 38 -1 37 36 39 -1 40 41 42 -1 41 40 43 -1 "
							                >
								<Coordinate DEF="coords_ME_ID75"
								            point="39.370079 0.000000 50.393700 0.000000 0.000000 47.244087 39.370079 0.000000 47.244087 0.000000 0.000000 50.393700 11.023620 28.346458 47.244087 7.874016 11.023620 47.244087 7.874016 28.346458 47.244087 11.023620 11.023620 47.244087 11.023620 31.496059 47.244087 11.023620 7.874016 47.244087 0.000000 39.370079 47.244087 7.874016 31.496059 47.244087 0.000000 0.000000 47.244087 39.370079 39.370079 47.244087 28.346458 31.496059 47.244087 31.496059 31.496059 47.244087 31.496059 28.346458 47.244087 31.496059 11.023620 47.244087 31.496059 7.874016 47.244087 7.874016 7.874016 47.244087 39.370079 0.000000 47.244087 28.346458 7.874016 47.244087 28.346458 28.346458 47.244087 28.346458 11.023620 47.244087 39.370079 39.370079 47.244087 39.370079 0.000000 50.393700 39.370079 0.000000 47.244087 39.370079 39.370079 50.393700 0.000000 0.000000 50.393700 7.874016 7.874016 50.393700 0.000000 39.370079 50.393700 39.370079 0.000000 50.393700 31.496059 7.874016 50.393700 31.496059 31.496059 50.393700 7.874016 31.496059 50.393700 39.370079 39.370079 50.393700 0.000000 39.370079 50.393700 0.000000 0.000000 47.244087 0.000000 0.000000 50.393700 0.000000 39.370079 47.244087 0.000000 39.370079 50.393700 39.370079 39.370079 47.244087 0.000000 39.370079 47.244087 39.370079 39.370079 50.393700 "
								            />
							</IndexedFaceSet>
						</Shape>
					</Group>
				</Transform>
			</Transform>
			<Transform DEF="group_0_010_TRANSFORM"
			           translation="788.976318 0.000000 -780.708679"
			           scale="40.000000 40.000000 40.000000"
			           rotation="-0.000000 0.707107 0.707107 3.141593"
			           >
				<Transform DEF="group_0_010_ifs_TRANSFORM"
				           translation="0.000002 0.000001 0.000000"
				           scale="1.000000 1.000000 1.000000"
				           rotation="-0.000000 0.000000 0.000000 0.000000"
				           >
					<Group DEF="group_ME_ID69">
						<Shape>
							<Appearance>
								<Material USE="MA_material" />
							</Appearance>
							<IndexedFaceSet solid="true"
							                coordIndex="0 1 2 -1 1 0 3 -1 4 5 6 -1 5 4 7 -1 8 9 10 -1 9 8 11 -1 12 13 14 -1 13 12 15 -1 16 17 18 -1 17 16 19 -1 "
							                >
								<Coordinate DEF="coords_ME_ID69"
								            point="23.622049 34.645668 74.015747 15.748030 34.645668 70.078735 23.622049 34.645668 70.078735 15.748030 34.645668 74.015747 15.748030 39.370079 74.015747 15.748030 34.645668 70.078735 15.748030 34.645668 74.015747 15.748030 39.370079 70.078735 23.622049 39.370079 70.078735 15.748030 34.645668 70.078735 15.748030 39.370079 70.078735 23.622049 34.645668 70.078735 23.622049 39.370079 70.078735 23.622049 34.645668 74.015747 23.622049 34.645668 70.078735 23.622049 39.370079 74.015747 15.748030 39.370079 74.015747 23.622049 39.370079 70.078735 15.748030 39.370079 70.078735 23.622049 39.370079 74.015747 "
								            />
							</IndexedFaceSet>
						</Shape>
					</Group>
				</Transform>
			</Transform>
			<Transform DEF="group_0_009_TRANSFORM"
			           translation="788.976318 0.000000 -780.708679"
			           scale="40.000000 40.000000 40.000000"
			           rotation="-0.000000 0.707107 0.707107 3.141593"
			           >
				<Transform DEF="group_0_009_ifs_TRANSFORM"
				           translation="0.000002 0.000001 0.000000"
				           scale="1.000000 1.000000 1.000000"
				           rotation="-0.000000 0.000000 0.000000 0.000000"
				           >
					<Group DEF="group_ME_ID61">
						<Shape>
							<Appearance>
								<Material DEF="MA_Color_C10"
								          diffuseColor="0.800 0.718 0.639"
								          specularColor="0.401 0.401 0.401"
								          emissiveColor="0.000 0.000 0.000"
								          ambientIntensity="0.333"
								          shininess="0.098"
								          transparency="0.0"
								          />
							</Appearance>
							<IndexedFaceSet solid="true"
							                coordIndex="0 1 2 -1 3 4 5 -1 6 7 8 -1 9 10 11 -1 "
							                >
								<Coordinate DEF="coords_ME_ID61"
								            point="39.370079 39.370079 77.165344 0.000000 39.370079 77.165344 19.685040 19.685040 86.614166 19.685040 19.685040 86.614166 0.000000 39.370079 77.165344 0.000000 0.000000 77.165344 39.370079 39.370079 77.165344 19.685040 19.685040 86.614166 39.370079 0.000000 77.165344 39.370079 0.000000 77.165344 19.685040 19.685040 86.614166 0.000000 0.000000 77.165344 "
								            />
							</IndexedFaceSet>
						</Shape>
					</Group>
				</Transform>
			</Transform>
			<Transform DEF="group_0_008_TRANSFORM"
			           translation="788.976318 0.000000 -780.708679"
			           scale="40.000000 40.000000 40.000000"
			           rotation="-0.000000 0.707107 0.707107 3.141593"
			           >
				<Transform DEF="group_0_008_ifs_TRANSFORM"
				           translation="0.000002 0.000001 0.000000"
				           scale="1.000000 1.000000 1.000000"
				           rotation="-0.000000 0.000000 0.000000 0.000000"
				           >
					<Group DEF="group_ME_ID55">
						<Shape>
							<Appearance>
								<Material USE="MA_material" />
							</Appearance>
							<IndexedFaceSet solid="true"
							                coordIndex="0 1 2 -1 1 0 3 -1 4 5 6 -1 5 4 7 -1 8 9 10 -1 9 8 11 -1 12 13 14 -1 13 12 15 -1 16 17 18 -1 17 16 19 -1 "
							                >
								<Coordinate DEF="coords_ME_ID55"
								            point="11.811020 31.496059 62.204720 11.811020 30.708660 70.078735 11.811020 30.708660 62.204720 11.811020 31.496059 70.078735 27.559059 31.496059 70.078735 11.811020 30.708660 70.078735 11.811020 31.496059 70.078735 27.559059 30.708660 70.078735 11.811020 30.708660 70.078735 27.559059 30.708660 62.204720 11.811020 30.708660 62.204720 27.559059 30.708660 70.078735 27.559059 30.708660 62.204720 11.811020 31.496059 62.204720 11.811020 30.708660 62.204720 27.559059 31.496059 62.204720 27.559059 31.496059 70.078735 27.559059 30.708660 62.204720 27.559059 30.708660 70.078735 27.559059 31.496059 62.204720 "
								            />
							</IndexedFaceSet>
						</Shape>
					</Group>
				</Transform>
			</Transform>
			<Transform DEF="group_0_007_TRANSFORM"
			           translation="788.976318 0.000000 -780.708679"
			           scale="40.000000 40.000000 40.000000"
			           rotation="-0.000000 0.707107 0.707107 3.141593"
			           >
				<Transform DEF="group_0_007_ifs_TRANSFORM"
				           translation="0.000002 0.000001 0.000000"
				           scale="1.000000 1.000000 1.000000"
				           rotation="-0.000000 0.000000 0.000000 0.000000"
				           >
					<Group DEF="group_ME_ID49">
						<Shape>
							<Appearance>
								<Material USE="MA_material" />
							</Appearance>
							<IndexedFaceSet solid="true"
							                coordIndex="0 1 2 -1 1 0 3 -1 4 5 6 -1 5 4 7 -1 8 9 10 -1 9 8 11 -1 12 13 14 -1 13 12 15 -1 16 17 18 -1 17 16 19 -1 "
							                >
								<Coordinate DEF="coords_ME_ID49"
								            point="23.622049 4.724409 70.078735 15.748030 0.000000 70.078735 15.748030 4.724409 70.078735 23.622049 0.000000 70.078735 23.622049 0.000000 74.015747 15.748030 0.000000 70.078735 23.622049 0.000000 70.078735 15.748030 0.000000 74.015747 15.748030 4.724409 74.015747 15.748030 0.000000 70.078735 15.748030 0.000000 74.015747 15.748030 4.724409 70.078735 15.748030 4.724409 74.015747 23.622049 4.724409 70.078735 15.748030 4.724409 70.078735 23.622049 4.724409 74.015747 23.622049 4.724409 70.078735 23.622049 0.000000 74.015747 23.622049 0.000000 70.078735 23.622049 4.724409 74.015747 "
								            />
							</IndexedFaceSet>
						</Shape>
					</Group>
				</Transform>
			</Transform>
			<Transform DEF="group_0_006_TRANSFORM"
			           translation="788.976318 0.000000 -780.708679"
			           scale="40.000000 40.000000 40.000000"
			           rotation="-0.000000 0.707107 0.707107 3.141593"
			           >
				<Transform DEF="group_0_006_ifs_TRANSFORM"
				           translation="0.000002 0.000001 0.000000"
				           scale="1.000000 1.000000 1.000000"
				           rotation="-0.000000 0.000000 0.000000 0.000000"
				           >
					<Group DEF="group_ME_ID43">
						<Shape>
							<Appearance>
								<Material USE="MA_Color_F20" />
							</Appearance>
							<IndexedFaceSet solid="true"
							                coordIndex="0 1 2 -1 1 0 3 -1 4 5 6 -1 5 4 7 -1 5 7 8 -1 8 7 9 -1 9 7 10 -1 11 6 5 -1 12 13 14 -1 13 12 15 -1 16 17 18 -1 17 16 19 -1 19 16 20 -1 20 16 21 -1 21 16 14 -1 21 14 13 -1 17 22 23 -1 22 17 19 -1 24 25 26 -1 25 24 27 -1 28 29 30 -1 29 28 31 -1 32 33 34 -1 33 32 35 -1 33 35 36 -1 34 37 38 -1 37 34 33 -1 38 37 39 -1 40 41 42 -1 41 40 43 -1 44 45 46 -1 45 44 47 -1 45 47 48 -1 46 49 50 -1 49 46 45 -1 50 49 51 -1 52 53 54 -1 53 52 55 -1 56 57 58 -1 57 56 59 -1 60 61 62 -1 61 60 63 -1 64 65 66 -1 67 68 69 -1 68 67 70 -1 68 70 71 -1 71 70 65 -1 71 65 64 -1 72 73 74 -1 73 72 75 -1 76 77 78 -1 77 76 79 -1 "
							                >
								<Coordinate DEF="coords_ME_ID43"
								            point="28.346458 11.023620 47.244087 31.496059 11.023620 23.622049 28.346458 11.023620 23.622049 31.496059 11.023620 47.244087 31.496059 7.874016 0.000000 31.496059 11.023620 23.622049 31.496059 7.874016 47.244087 31.496059 31.496059 0.000000 31.496059 28.346458 23.622049 31.496059 28.346458 47.244087 31.496059 31.496059 47.244087 31.496059 11.023620 47.244087 31.496059 11.023620 23.622049 28.346458 28.346458 23.622049 28.346458 11.023620 23.622049 31.496059 28.346458 23.622049 28.346458 7.874016 23.622049 11.023620 11.023620 23.622049 11.023620 7.874016 23.622049 11.023620 28.346458 23.622049 11.023620 31.496059 23.622049 28.346458 31.496059 23.622049 7.874016 28.346458 23.622049 7.874016 11.023620 23.622049 28.346458 11.023620 47.244087 28.346458 7.874016 23.622049 28.346458 7.874016 47.244087 28.346458 11.023620 23.622049 31.496059 28.346458 47.244087 28.346458 28.346458 23.622049 31.496059 28.346458 23.622049 28.346458 28.346458 47.244087 31.496059 7.874016 0.000000 28.346458 7.874016 23.622049 7.874016 7.874016 0.000000 31.496059 7.874016 47.244087 28.346458 7.874016 47.244087 11.023620 7.874016 23.622049 7.874016 7.874016 47.244087 11.023620 7.874016 47.244087 31.496059 31.496059 0.000000 7.874016 7.874016 0.000000 7.874016 31.496059 0.000000 31.496059 7.874016 0.000000 7.874016 31.496059 0.000000 11.023620 31.496059 23.622049 31.496059 31.496059 0.000000 7.874016 31.496059 47.244087 11.023620 31.496059 47.244087 28.346458 31.496059 23.622049 31.496059 31.496059 47.244087 28.346458 31.496059 47.244087 28.346458 31.496059 47.244087 28.346458 28.346458 23.622049 28.346458 28.346458 47.244087 28.346458 31.496059 23.622049 11.023620 31.496059 23.622049 11.023620 28.346458 47.244087 11.023620 28.346458 23.622049 11.023620 31.496059 47.244087 11.023620 28.346458 47.244087 7.874016 28.346458 23.622049 11.023620 28.346458 23.622049 7.874016 28.346458 47.244087 7.874016 31.496059 47.244087 7.874016 28.346458 23.622049 7.874016 28.346458 47.244087 7.874016 11.023620 47.244087 7.874016 7.874016 0.000000 7.874016 7.874016 47.244087 7.874016 11.023620 23.622049 7.874016 31.496059 0.000000 7.874016 11.023620 47.244087 11.023620 11.023620 23.622049 7.874016 11.023620 23.622049 11.023620 11.023620 47.244087 11.023620 11.023620 23.622049 11.023620 7.874016 47.244087 11.023620 7.874016 23.622049 11.023620 11.023620 47.244087 "
								            />
							</IndexedFaceSet>
						</Shape>
					</Group>
				</Transform>
			</Transform>
			<Transform DEF="group_0_005_TRANSFORM"
			           translation="788.976318 0.000000 -780.708679"
			           scale="40.000000 40.000000 40.000000"
			           rotation="-0.000000 0.707107 0.707107 3.141593"
			           >
				<Transform DEF="group_0_005_ifs_TRANSFORM"
				           translation="0.000002 0.000001 0.000000"
				           scale="1.000000 1.000000 1.000000"
				           rotation="-0.000000 0.000000 0.000000 0.000000"
				           >
					<Group DEF="group_ME_ID37">
						<Shape>
							<Appearance>
								<Material USE="MA_material" />
							</Appearance>
							<IndexedFaceSet solid="true"
							                coordIndex="0 1 2 -1 1 0 3 -1 4 5 6 -1 5 4 7 -1 8 9 10 -1 9 8 11 -1 12 13 14 -1 13 12 15 -1 16 17 18 -1 17 16 19 -1 "
							                >
								<Coordinate DEF="coords_ME_ID37"
								            point="31.496059 11.811020 62.204720 30.708660 27.559059 62.204720 30.708660 11.811020 62.204720 31.496059 27.559059 62.204720 31.496059 27.559059 70.078735 30.708660 27.559059 62.204720 31.496059 27.559059 62.204720 30.708660 27.559059 70.078735 30.708660 27.559059 62.204720 30.708660 11.811020 70.078735 30.708660 11.811020 62.204720 30.708660 27.559059 70.078735 30.708660 11.811020 70.078735 31.496059 11.811020 62.204720 30.708660 11.811020 62.204720 31.496059 11.811020 70.078735 31.496059 27.559059 70.078735 30.708660 11.811020 70.078735 30.708660 27.559059 70.078735 31.496059 11.811020 70.078735 "
								            />
							</IndexedFaceSet>
						</Shape>
					</Group>
				</Transform>
			</Transform>
			<Transform DEF="group_0_004_TRANSFORM"
			           translation="788.976318 0.000000 -780.708679"
			           scale="40.000000 40.000000 40.000000"
			           rotation="-0.000000 0.707107 0.707107 3.141593"
			           >
				<Transform DEF="group_0_004_ifs_TRANSFORM"
				           translation="0.000002 0.000001 0.000000"
				           scale="1.000000 1.000000 1.000000"
				           rotation="-0.000000 0.000000 0.000000 0.000000"
				           >
					<Group DEF="group_ME_ID31">
						<Shape>
							<Appearance>
								<Material USE="MA_material" />
							</Appearance>
							<IndexedFaceSet solid="true"
							                coordIndex="0 1 2 -1 1 0 3 -1 4 5 6 -1 5 4 7 -1 8 9 10 -1 9 8 11 -1 12 13 14 -1 13 12 15 -1 16 17 18 -1 17 16 19 -1 "
							                >
								<Coordinate DEF="coords_ME_ID31"
								            point="0.000000 23.622049 74.015747 0.000000 15.748030 70.078735 0.000000 15.748030 74.015747 0.000000 23.622049 70.078735 4.724409 15.748030 74.015747 0.000000 15.748030 70.078735 4.724409 15.748030 70.078735 0.000000 15.748030 74.015747 0.000000 23.622049 74.015747 4.724409 23.622049 70.078735 0.000000 23.622049 70.078735 4.724409 23.622049 74.015747 4.724409 23.622049 70.078735 0.000000 15.748030 70.078735 0.000000 23.622049 70.078735 4.724409 15.748030 70.078735 4.724409 23.622049 70.078735 4.724409 15.748030 74.015747 4.724409 15.748030 70.078735 4.724409 23.622049 74.015747 "
								            />
							</IndexedFaceSet>
						</Shape>
					</Group>
				</Transform>
			</Transform>
			<Transform DEF="group_0_003_TRANSFORM"
			           translation="788.976318 0.000000 -780.708679"
			           scale="40.000000 40.000000 40.000000"
			           rotation="-0.000000 0.707107 0.707107 3.141593"
			           >
				<Transform DEF="group_0_003_ifs_TRANSFORM"
				           translation="0.000002 0.000001 0.000000"
				           scale="1.000000 1.000000 1.000000"
				           rotation="-0.000000 0.000000 0.000000 0.000000"
				           >
					<Group DEF="group_ME_ID25">
						<Shape>
							<Appearance>
								<Material USE="MA_Color_F20" />
							</Appearance>
							<IndexedFaceSet solid="true"
							                coordIndex="0 1 2 -1 1 0 3 -1 1 3 4 -1 4 3 5 -1 2 6 7 -1 6 2 1 -1 7 6 5 -1 7 5 3 -1 8 9 10 -1 9 8 11 -1 9 11 12 -1 12 11 13 -1 10 14 15 -1 14 10 9 -1 15 14 13 -1 15 13 11 -1 16 17 18 -1 17 16 19 -1 17 19 20 -1 20 19 21 -1 18 22 23 -1 22 18 17 -1 23 22 21 -1 23 21 19 -1 24 25 26 -1 25 24 27 -1 25 27 28 -1 28 27 29 -1 26 30 31 -1 30 26 25 -1 31 30 29 -1 31 29 27 -1 "
							                >
								<Coordinate DEF="coords_ME_ID25"
								            point="7.874016 31.496059 50.393700 11.811020 31.496059 62.204720 31.496059 31.496059 50.393700 7.874016 31.496059 74.015747 11.811020 31.496059 70.078735 27.559059 31.496059 70.078735 27.559059 31.496059 62.204720 31.496059 31.496059 74.015747 7.874016 7.874016 74.015747 7.874016 11.811020 70.078735 7.874016 7.874016 50.393700 7.874016 31.496059 74.015747 7.874016 27.559059 70.078735 7.874016 27.559059 62.204720 7.874016 11.811020 62.204720 7.874016 31.496059 50.393700 31.496059 7.874016 50.393700 31.496059 11.811020 62.204720 31.496059 7.874016 74.015747 31.496059 31.496059 50.393700 31.496059 27.559059 62.204720 31.496059 27.559059 70.078735 31.496059 11.811020 70.078735 31.496059 31.496059 74.015747 31.496059 7.874016 50.393700 27.559059 7.874016 62.204720 7.874016 7.874016 50.393700 31.496059 7.874016 74.015747 27.559059 7.874016 70.078735 11.811020 7.874016 70.078735 11.811020 7.874016 62.204720 7.874016 7.874016 74.015747 "
								            />
							</IndexedFaceSet>
						</Shape>
					</Group>
				</Transform>
			</Transform>
			<Transform DEF="group_0_002_TRANSFORM"
			           translation="788.976318 0.000000 -780.708679"
			           scale="40.000000 40.000000 40.000000"
			           rotation="-0.000000 0.707107 0.707107 3.141593"
			           >
				<Transform DEF="group_0_002_ifs_TRANSFORM"
				           translation="0.000002 0.000001 0.000000"
				           scale="1.000000 1.000000 1.000000"
				           rotation="-0.000000 0.000000 0.000000 0.000000"
				           >
					<Group DEF="group_ME_ID19">
						<Shape>
							<Appearance>
								<Material USE="MA_material" />
							</Appearance>
							<IndexedFaceSet solid="true"
							                coordIndex="0 1 2 -1 1 0 3 -1 4 5 6 -1 5 4 7 -1 8 9 10 -1 9 8 11 -1 12 13 14 -1 13 12 15 -1 16 17 18 -1 17 16 19 -1 "
							                >
								<Coordinate DEF="coords_ME_ID19"
								            point="11.811020 8.661417 62.204720 11.811020 7.874016 70.078735 11.811020 7.874016 62.204720 11.811020 8.661417 70.078735 27.559059 7.874016 62.204720 11.811020 8.661417 62.204720 11.811020 7.874016 62.204720 27.559059 8.661417 62.204720 27.559059 8.661417 70.078735 11.811020 8.661417 62.204720 27.559059 8.661417 62.204720 11.811020 8.661417 70.078735 27.559059 8.661417 70.078735 11.811020 7.874016 70.078735 11.811020 8.661417 70.078735 27.559059 7.874016 70.078735 27.559059 8.661417 70.078735 27.559059 7.874016 62.204720 27.559059 7.874016 70.078735 27.559059 8.661417 62.204720 "
								            />
							</IndexedFaceSet>
						</Shape>
					</Group>
				</Transform>
			</Transform>
			<Transform DEF="group_0_001_TRANSFORM"
			           translation="788.976318 0.000000 -780.708679"
			           scale="40.000000 40.000000 40.000000"
			           rotation="-0.000000 0.707107 0.707107 3.141593"
			           >
				<Transform DEF="group_0_001_ifs_TRANSFORM"
				           translation="0.000002 0.000001 0.000000"
				           scale="1.000000 1.000000 1.000000"
				           rotation="-0.000000 0.000000 0.000000 0.000000"
				           >
					<Group DEF="group_ME_ID11">
						<Shape>
							<Appearance>
								<Material USE="MA_material" />
							</Appearance>
							<IndexedFaceSet solid="true"
							                coordIndex="0 1 2 -1 1 0 3 -1 4 5 6 -1 5 4 7 -1 8 9 10 -1 9 8 11 -1 12 13 14 -1 13 12 15 -1 16 17 18 -1 17 16 19 -1 "
							                >
								<Coordinate DEF="coords_ME_ID11"
								            point="8.661417 11.811020 62.204720 7.874016 27.559059 62.204720 7.874016 11.811020 62.204720 8.661417 27.559059 62.204720 7.874016 11.811020 70.078735 8.661417 11.811020 62.204720 7.874016 11.811020 62.204720 8.661417 11.811020 70.078735 8.661417 27.559059 70.078735 8.661417 11.811020 62.204720 8.661417 11.811020 70.078735 8.661417 27.559059 62.204720 8.661417 27.559059 70.078735 7.874016 27.559059 62.204720 8.661417 27.559059 62.204720 7.874016 27.559059 70.078735 8.661417 27.559059 70.078735 7.874016 11.811020 70.078735 7.874016 27.559059 70.078735 8.661417 11.811020 70.078735 "
								            />
							</IndexedFaceSet>
						</Shape>
					</Group>
				</Transform>
			</Transform>
			<Transform DEF="group_0_TRANSFORM"
			           translation="788.976318 0.000000 -780.708679"
			           scale="40.000000 40.000000 40.000000"
			           rotation="-0.000000 0.707107 0.707107 3.141593"
			           >
				<Transform DEF="group_0_ifs_TRANSFORM"
				           translation="0.000002 0.000001 0.000000"
				           scale="1.000000 1.000000 1.000000"
				           rotation="-0.000000 0.000000 0.000000 0.000000"
				           >
					<Group DEF="group_ME_ID3">
						<Shape>
							<Appearance>
								<Material USE="MA_Color_F20" />
							</Appearance>
							<IndexedFaceSet solid="true"
							                coordIndex="0 1 2 -1 1 0 3 -1 3 0 4 -1 4 0 5 -1 6 7 8 -1 7 6 9 -1 9 6 10 -1 9 10 11 -1 10 6 12 -1 11 13 14 -1 13 11 15 -1 15 11 16 -1 16 11 17 -1 17 11 18 -1 18 11 10 -1 17 18 19 -1 20 21 22 -1 21 20 23 -1 21 23 24 -1 24 23 25 -1 23 20 26 -1 23 26 9 -1 9 26 7 -1 25 27 28 -1 27 25 14 -1 27 14 29 -1 14 25 23 -1 29 14 13 -1 30 31 32 -1 31 30 33 -1 33 30 34 -1 34 30 35 -1 36 37 38 -1 37 36 39 -1 39 36 40 -1 40 36 41 -1 42 43 44 -1 43 42 45 -1 45 42 46 -1 45 46 47 -1 "
							                >
								<Coordinate DEF="coords_ME_ID3"
								            point="0.000000 39.370079 77.165344 0.000000 0.000000 74.015747 0.000000 0.000000 77.165344 0.000000 15.748030 74.015747 0.000000 23.622049 74.015747 0.000000 39.370079 74.015747 39.370079 39.370079 74.015747 23.622049 34.645668 74.015747 23.622049 39.370079 74.015747 31.496059 31.496059 74.015747 34.645668 23.622049 74.015747 31.496059 7.874016 74.015747 39.370079 23.622049 74.015747 15.748030 4.724409 74.015747 7.874016 7.874016 74.015747 23.622049 4.724409 74.015747 23.622049 0.000000 74.015747 39.370079 0.000000 74.015747 34.645668 15.748030 74.015747 39.370079 15.748030 74.015747 15.748030 39.370079 74.015747 0.000000 23.622049 74.015747 0.000000 39.370079 74.015747 7.874016 31.496059 74.015747 4.724409 23.622049 74.015747 4.724409 15.748030 74.015747 15.748030 34.645668 74.015747 0.000000 0.000000 74.015747 0.000000 15.748030 74.015747 15.748030 0.000000 74.015747 39.370079 0.000000 77.165344 23.622049 0.000000 74.015747 39.370079 0.000000 74.015747 15.748030 0.000000 74.015747 0.000000 0.000000 74.015747 0.000000 0.000000 77.165344 0.000000 39.370079 77.165344 15.748030 39.370079 74.015747 0.000000 39.370079 74.015747 23.622049 39.370079 74.015747 39.370079 39.370079 74.015747 39.370079 39.370079 77.165344 39.370079 15.748030 74.015747 39.370079 0.000000 77.165344 39.370079 0.000000 74.015747 39.370079 39.370079 77.165344 39.370079 23.622049 74.015747 39.370079 39.370079 74.015747 "
								            />
							</IndexedFaceSet>
						</Shape>
					</Group>
				</Transform>
			</Transform>
		</Transform>
	</Scene>
</X3D>