<?xml version="1.0" encoding="UTF-8"?>
<!DOCTYPE X3D PUBLIC "ISO//Web3D//DTD X3D 3.0//EN" "http://www.web3d.org/specifications/x3d-3.0.dtd">
<X3D version="3.0" profile="Immersive" xmlns:xsd="http://www.w3.org/2001/XMLSchema-instance" xsd:noNamespaceSchemaLocation="http://www.web3d.org/specifications/x3d-3.0.xsd">
	<head>
		<meta name="filename" content="type62.x3d" />
		<meta name="generator" content="" />
	</head>
	<Scene>
		<NavigationInfo headlight="true"
		                visibilityLimit="0.0"
		                type='"EXAMINE", "ANY"'
		                avatarSize="0.25, 1.75, 0.75"
		                />
		<Background DEF="WO_World"
		            groundColor="0.051 0.051 0.051"
		            skyColor="0.051 0.051 0.051"
		            />
		<Transform DEF="S_TRANSFORM"
		           translation="0.000000 0.000000 0.000000"
		           scale="0.025400 0.025400 0.025400"
		           rotation="0.000000 0.707107 0.707107 3.141593"
		           >
			<Transform DEF="group_0_022_TRANSFORM"
			           translation="-2558.613037 -0.000000 -946.850342"
			           scale="1.000000 1.000000 1.000000"
			           rotation="1.000000 0.000000 0.000000 0.000000"
			           >
			</Transform>
			<Transform DEF="group_0_021_TRANSFORM"
			           translation="-2558.613037 -0.000000 -946.850342"
			           scale="1.000000 1.000000 1.000000"
			           rotation="1.000000 0.000000 0.000000 0.000000"
			           >
			</Transform>
			<Transform DEF="group_0_020_TRANSFORM"
			           translation="-2558.613037 -0.000000 -946.850342"
			           scale="1.000000 1.000000 1.000000"
			           rotation="1.000000 0.000000 0.000000 0.000000"
			           >
			</Transform>
			<Transform DEF="group_0_019_TRANSFORM"
			           translation="-2558.613037 -0.000000 -946.850342"
			           scale="1.000000 1.000000 1.000000"
			           rotation="1.000000 0.000000 0.000000 0.000000"
			           >
			</Transform>
			<Transform DEF="group_0_018_TRANSFORM"
			           translation="-2558.613037 -0.000000 -946.850342"
			           scale="1.000000 1.000000 1.000000"
			           rotation="1.000000 0.000000 0.000000 0.000000"
			           >
				<Transform DEF="group_0_018_ifs_TRANSFORM"
				           translation="0.000044 0.000000 0.000032"
				           scale="1.000000 1.000000 1.000000"
				           rotation="1.000000 0.000000 0.000000 0.000000"
				           >
					<Group DEF="group_ME_ID119">
						<Shape>
							<Appearance>
								<Material DEF="MA_Type62_part_1"
								          diffuseColor="0.216 0.318 0.212"
								          specularColor="0.401 0.401 0.401"
								          emissiveColor="0.000 0.000 0.000"
								          ambientIntensity="0.333"
								          shininess="0.098"
								          transparency="0.0"
								          />
							</Appearance>
							<IndexedFaceSet solid="true"
							                coordIndex="0 1 2 -1 "
							                >
								<Coordinate DEF="coords_ME_ID119"
								            point="2786.985107 705.900391 1604.334106 2789.224121 705.900391 1600.852051 2784.837158 705.900391 1599.922119 "
								            />
							</IndexedFaceSet>
						</Shape>
					</Group>
				</Transform>
			</Transform>
			<Transform DEF="group_0_017_TRANSFORM"
			           translation="-2558.613037 -0.000000 -946.850342"
			           scale="1.000000 1.000000 1.000000"
			           rotation="1.000000 0.000000 0.000000 0.000000"
			           >
				<Transform DEF="group_0_017_ifs_TRANSFORM"
				           translation="0.000044 0.000000 0.000032"
				           scale="1.000000 1.000000 1.000000"
				           rotation="1.000000 0.000000 0.000000 0.000000"
				           >
					<Group DEF="group_ME_ID113">
						<Shape>
							<Appearance>
								<Material DEF="MA_Type62_part_2"
								          diffuseColor="0.086 0.176 0.000"
								          specularColor="0.401 0.401 0.401"
								          emissiveColor="0.000 0.000 0.000"
								          ambientIntensity="0.333"
								          shininess="0.098"
								          transparency="0.0"
								          />
							</Appearance>
							<IndexedFaceSet solid="true"
							                creaseAngle="4.0000"
							                coordIndex="0 1 2 -1 1 0 3 -1 3 0 4 -1 5 6 7 -1 6 5 8 -1 8 0 6 -1 6 0 9 -1 9 0 10 -1 10 0 2 -1 11 0 8 -1 0 11 12 -1 0 12 4 -1 10 13 9 -1 13 10 14 -1 14 10 15 -1 8 16 17 -1 16 8 18 -1 18 8 5 -1 18 5 7 -1 19 12 11 -1 12 19 20 -1 21 17 22 -1 17 21 8 -1 8 21 11 -1 15 23 14 -1 23 15 24 -1 18 25 16 -1 26 20 19 -1 20 26 27 -1 20 27 28 -1 11 29 19 -1 29 11 21 -1 29 21 30 -1 30 21 31 -1 32 19 29 -1 33 21 22 -1 21 33 34 -1 26 19 32 -1 35 28 27 -1 31 36 30 -1 36 31 37 -1 34 31 21 -1 31 34 38 -1 39 36 37 -1 38 37 31 -1 37 38 40 -1 40 39 37 -1 39 40 41 -1 "
							                >
								<Coordinate DEF="coords_ME_ID113"
								            point="3599.897217 901.014038 423.497498 3617.656250 900.333069 436.805878 3608.579834 883.872070 411.595398 3616.839844 901.014038 436.905304 3584.699951 926.446899 444.328033 3216.345215 870.080566 317.366302 3258.943115 876.068054 331.199402 3216.345215 860.508789 309.692291 3216.345215 901.014038 342.166901 3290.515137 834.177185 304.308502 3585.386230 834.177185 366.834686 3216.345215 961.780762 399.636780 3534.556152 961.780762 467.112183 3318.649170 795.464478 283.911896 3365.300049 761.714294 270.821014 3552.773193 761.714294 310.573792 2944.681152 834.177185 346.186584 2856.087158 901.014038 418.558197 3162.688232 834.177185 299.959015 3216.345215 1016.074036 460.609192 3453.632080 1016.074036 510.924774 2869.104248 961.780762 473.267883 2839.825195 912.781067 433.135193 3415.073242 705.900391 249.172287 3528.454102 705.900391 273.214203 3030.601074 766.955078 282.191010 3216.345215 1046.576050 501.787292 3285.167236 1063.532104 539.272095 3378.556152 1063.532104 559.074890 3065.429199 991.690002 465.226898 3033.519043 1016.074036 499.376678 2907.628174 1016.074036 526.071472 3130.266113 1016.074036 478.862030 2816.139893 924.841064 467.459198 2845.873047 961.780762 491.652679 3352.364258 1078.893066 578.955017 2967.606201 1063.532104 577.423096 2948.108154 1063.532104 581.557495 2892.307129 1016.074036 538.195557 2956.129150 1071.199097 592.551086 2935.957031 1063.532104 591.173157 2947.644043 1075.142090 608.183594 "
								            />
							</IndexedFaceSet>
						</Shape>
					</Group>
				</Transform>
			</Transform>
			<Transform DEF="group_0_016_TRANSFORM"
			           translation="-2558.613037 -0.000000 -946.850342"
			           scale="1.000000 1.000000 1.000000"
			           rotation="1.000000 0.000000 0.000000 0.000000"
			           >
				<Transform DEF="group_0_016_ifs_TRANSFORM"
				           translation="0.000044 0.000000 0.000032"
				           scale="1.000000 1.000000 1.000000"
				           rotation="1.000000 0.000000 0.000000 0.000000"
				           >
					<Group DEF="group_ME_ID107">
						<Shape>
							<Appearance>
								<Material USE="MA_Type62_part_2" />
							</Appearance>
							<IndexedFaceSet solid="true"
							                coordIndex="0 1 2 -1 1 0 3 -1 1 3 4 -1 3 0 5 -1 5 0 6 -1 6 7 5 -1 4 8 1 -1 "
							                >
								<Coordinate DEF="coords_ME_ID107"
								            point="2040.613037 705.900391 1898.454102 2376.916992 705.900391 1640.979126 2175.436035 705.900391 1560.581055 2390.855225 705.900391 1739.462036 2695.422119 705.900391 1739.462036 2390.855225 705.900391 1863.891113 2719.773193 705.900391 1898.454102 2741.589844 705.900391 1863.891113 2567.218018 705.900391 1566.571045 "
								            />
							</IndexedFaceSet>
						</Shape>
					</Group>
				</Transform>
			</Transform>
			<Transform DEF="group_0_015_TRANSFORM"
			           translation="-2558.613037 -0.000000 -946.850342"
			           scale="1.000000 1.000000 1.000000"
			           rotation="1.000000 0.000000 0.000000 0.000000"
			           >
				<Transform DEF="group_0_015_ifs_TRANSFORM"
				           translation="0.000044 0.000000 0.000032"
				           scale="1.000000 1.000000 1.000000"
				           rotation="1.000000 0.000000 0.000000 0.000000"
				           >
					<Group DEF="group_ME_ID101">
						<Shape>
							<Appearance>
								<Material USE="MA_Type62_part_2" />
							</Appearance>
							<IndexedFaceSet solid="true"
							                creaseAngle="4.0000"
							                coordIndex="0 1 2 -1 1 0 3 -1 1 3 4 -1 1 4 5 -1 3 0 6 -1 7 3 8 -1 3 7 9 -1 3 9 10 -1 3 10 11 -1 3 11 4 -1 1 12 13 -1 12 1 5 -1 14 1 15 -1 1 14 2 -1 16 17 18 -1 17 16 2 -1 16 0 2 -1 6 0 16 -1 19 11 10 -1 11 19 20 -1 11 20 21 -1 22 18 23 -1 18 22 24 -1 18 24 16 -1 16 24 25 -1 16 25 10 -1 16 10 9 -1 16 9 8 -1 8 9 7 -1 15 13 26 -1 13 15 1 -1 27 15 28 -1 15 27 14 -1 17 14 29 -1 14 17 2 -1 30 17 31 -1 17 30 18 -1 21 20 32 -1 19 10 25 -1 33 23 34 -1 23 33 22 -1 35 18 30 -1 18 35 23 -1 28 26 36 -1 26 28 15 -1 37 28 38 -1 28 37 39 -1 28 39 27 -1 29 40 41 -1 40 29 42 -1 42 29 14 -1 42 27 43 -1 27 42 14 -1 31 29 44 -1 29 31 17 -1 45 34 46 -1 34 45 33 -1 33 45 47 -1 48 35 49 -1 35 48 23 -1 23 48 50 -1 38 36 51 -1 36 38 28 -1 27 39 43 -1 40 52 41 -1 44 41 53 -1 41 44 29 -1 50 48 54 -1 53 52 55 -1 52 53 41 -1 "
							                >
								<Coordinate DEF="coords_ME_ID101"
								            point="3216.345215 901.014038 1556.287109 3563.586182 961.780762 1425.186035 3216.345215 961.780762 1498.817017 3216.548096 901.014038 1556.244019 3560.593262 901.014038 1483.291016 3591.024170 915.863098 1462.794067 3216.345215 900.797791 1556.459961 3216.345215 869.867188 1581.259033 3216.345215 900.797791 1556.459961 3216.345215 856.324097 1592.117065 3216.345215 834.177185 1609.873047 3433.755127 834.177185 1563.772095 3635.103271 922.981018 1418.717041 3615.784180 961.780762 1383.878052 3216.345215 1016.074036 1437.845093 3525.063232 1016.074036 1372.382080 3216.143066 901.014038 1556.244019 2869.104248 961.780762 1425.186035 2832.794189 901.014038 1474.956055 3216.345215 798.467163 1634.189941 3292.108154 761.714294 1643.153076 3305.459229 761.714294 1640.322021 2907.976074 834.177185 1544.484131 2798.937012 834.177185 1521.363037 2936.079834 861.738403 1528.347046 3062.965088 834.177185 1577.349121 3585.896240 1016.074036 1324.241089 3216.345215 1063.532104 1373.775024 3484.583252 1063.532104 1316.896118 2907.628174 1016.074036 1372.382080 2688.825195 901.014038 1361.024048 2752.020020 961.780762 1332.529053 3299.290039 758.000366 1643.773071 2839.038086 761.714294 1579.212036 2767.760010 761.714294 1564.097046 2625.283203 834.177185 1383.939087 3556.573242 1063.532104 1259.926025 3270.337158 1103.841064 1295.585083 3442.414062 1103.841064 1259.097046 3216.345215 1063.729980 1373.447021 3021.652100 1063.532104 1332.491089 2948.108154 1063.532104 1316.896118 3181.035156 1027.738037 1414.609985 3216.126221 1063.532104 1373.729126 2814.448242 1016.074036 1298.643066 2784.837158 705.900391 1599.922119 2758.591064 736.561401 1576.666016 2789.224121 705.900391 1600.852051 2722.976074 761.714294 1528.657104 2620.525146 828.744202 1385.227051 2767.760010 761.714294 1564.097046 3528.010010 1103.841064 1191.359009 2960.766113 1075.632080 1299.547119 2875.695068 1063.532104 1259.591064 2758.591064 736.561401 1576.666016 2891.994141 1074.545044 1247.582031 "
								            />
							</IndexedFaceSet>
						</Shape>
					</Group>
				</Transform>
			</Transform>
			<Transform DEF="group_0_014_TRANSFORM"
			           translation="-2558.613037 -0.000000 -946.850342"
			           scale="1.000000 1.000000 1.000000"
			           rotation="1.000000 0.000000 0.000000 0.000000"
			           >
				<Transform DEF="group_0_014_ifs_TRANSFORM"
				           translation="0.000044 0.000000 0.000032"
				           scale="1.000000 1.000000 1.000000"
				           rotation="1.000000 0.000000 0.000000 0.000000"
				           >
					<Group DEF="group_ME_ID95">
						<Shape>
							<Appearance>
								<Material DEF="MA_Type62_part_4"
								          diffuseColor="0.086 0.176 0.000"
								          specularColor="0.401 0.401 0.401"
								          emissiveColor="0.000 0.000 0.000"
								          ambientIntensity="0.333"
								          shininess="0.098"
								          transparency="0.0"
								          />
							</Appearance>
							<IndexedFaceSet solid="true"
							                creaseAngle="4.0000"
							                coordIndex="0 1 2 -1 1 0 3 -1 4 5 6 -1 5 4 7 -1 8 9 10 -1 9 8 11 -1 11 8 12 -1 12 8 13 -1 12 13 14 -1 14 13 15 -1 15 13 16 -1 16 13 17 -1 17 13 18 -1 18 13 19 -1 19 13 20 -1 20 13 21 -1 21 13 22 -1 23 24 25 -1 24 23 26 -1 27 28 29 -1 28 27 30 -1 30 31 28 -1 31 30 32 -1 32 33 31 -1 33 32 34 -1 34 35 33 -1 35 34 36 -1 36 37 35 -1 37 36 38 -1 38 39 37 -1 39 38 40 -1 40 41 39 -1 41 40 42 -1 42 43 41 -1 43 42 44 -1 44 45 43 -1 45 44 46 -1 46 47 45 -1 47 46 48 -1 48 49 47 -1 49 48 50 -1 50 51 49 -1 51 50 52 -1 "
							                >
								<Coordinate DEF="coords_ME_ID95"
								            point="2051.097168 40.630440 1847.761108 4381.594238 40.630440 1898.454102 4381.594238 40.630440 1847.761108 2051.097168 40.630440 1898.454102 4381.594238 40.630440 1847.761108 4809.388184 331.166504 1898.454102 4809.388184 331.166504 1847.761108 4381.594238 40.630440 1898.454102 2051.097168 40.630440 1847.761108 1758.691040 318.163300 1847.761108 1623.303101 331.166504 1847.761108 2049.783203 295.308014 1847.761108 2341.166992 277.525787 1847.761108 4381.594238 40.630440 1847.761108 2632.771240 264.821014 1847.761108 2924.522217 257.196808 1847.761108 3216.345215 254.655197 1847.761108 3508.169189 257.196808 1847.761108 3799.919189 264.821014 1847.761108 4091.523193 277.525787 1847.761108 4382.908203 295.308014 1847.761108 4674.000000 318.163300 1847.761108 4809.388184 331.166504 1847.761108 1623.303101 331.166504 1847.761108 2051.097168 40.630440 1898.454102 2051.097168 40.630440 1847.761108 1623.303101 331.166504 1898.454102 4809.388184 331.166504 1898.454102 4674.000000 318.163300 1847.761108 4809.388184 331.166504 1847.761108 4674.000000 318.163300 1898.454102 4382.908203 295.308014 1847.761108 4382.908203 295.308014 1898.454102 4091.523193 277.525787 1847.761108 4091.523193 277.525787 1898.454102 3799.919189 264.821014 1847.761108 3799.919189 264.821014 1898.454102 3508.169189 257.196808 1847.761108 3508.169189 257.196808 1898.454102 3216.345215 254.655197 1847.761108 3216.345215 254.655197 1898.454102 2924.522217 257.196808 1847.761108 2924.522217 257.196808 1898.454102 2632.771240 264.821014 1847.761108 2632.771240 264.821014 1898.454102 2341.166992 277.525787 1847.761108 2341.166992 277.525787 1898.454102 2049.783203 295.308014 1847.761108 2049.783203 295.308014 1898.454102 1758.691040 318.163300 1847.761108 1758.691040 318.163300 1898.454102 1623.303101 331.166504 1847.761108 1623.303101 331.166504 1898.454102 "
								            />
							</IndexedFaceSet>
						</Shape>
					</Group>
				</Transform>
			</Transform>
			<Transform DEF="group_0_013_TRANSFORM"
			           translation="-2558.613037 -0.000000 -946.850342"
			           scale="1.000000 1.000000 1.000000"
			           rotation="1.000000 0.000000 0.000000 0.000000"
			           >
				<Transform DEF="group_0_013_ifs_TRANSFORM"
				           translation="0.000044 0.000000 0.000032"
				           scale="1.000000 1.000000 1.000000"
				           rotation="1.000000 0.000000 0.000000 0.000000"
				           >
					<Group DEF="group_ME_ID89">
						<Shape>
							<Appearance>
								<Material USE="MA_Type62_part_4" />
							</Appearance>
							<IndexedFaceSet solid="true"
							                creaseAngle="4.0000"
							                coordIndex="0 1 2 -1 1 0 3 -1 4 2 5 -1 4 0 2 -1 6 7 8 -1 7 6 9 -1 7 9 10 -1 7 10 11 -1 11 10 12 -1 11 12 13 -1 11 13 14 -1 11 14 15 -1 11 15 16 -1 11 16 17 -1 11 17 18 -1 11 18 19 -1 11 19 20 -1 21 22 23 -1 22 21 24 -1 25 5 26 -1 5 25 4 -1 27 26 28 -1 26 27 25 -1 29 28 30 -1 28 29 27 -1 31 30 32 -1 30 31 29 -1 33 32 34 -1 32 33 31 -1 35 34 36 -1 34 35 33 -1 37 36 38 -1 36 37 35 -1 39 38 40 -1 38 39 37 -1 41 40 42 -1 40 41 39 -1 43 42 44 -1 42 43 41 -1 45 46 47 -1 46 45 48 -1 49 50 51 -1 50 49 52 -1 "
							                >
								<Coordinate DEF="coords_ME_ID89"
								            point="1758.700073 318.291504 50.693027 1622.822021 331.341705 0.000000 1758.700073 318.291504 0.000000 1622.822021 331.341705 50.693027 2049.790039 295.436279 50.693027 2049.790039 295.436279 0.000000 1758.700073 318.291504 50.693027 2051.062988 40.501900 50.693027 1622.822021 331.341705 50.693027 2049.790039 295.436279 50.693027 2341.173096 277.654205 50.693027 4381.627441 40.501900 50.693027 2632.775146 264.949402 50.693027 2924.524170 257.325287 50.693027 3216.345215 254.783691 50.693027 3508.167236 257.325287 50.693027 3799.916260 264.949402 50.693027 4091.518311 277.654205 50.693027 4382.901367 295.436279 50.693027 4673.991211 318.291504 50.693027 4809.868164 331.341705 50.693027 1622.822021 331.341705 0.000000 2051.062988 40.501900 50.693027 2051.062988 40.501900 0.000000 1622.822021 331.341705 50.693027 2341.173096 277.654205 50.693027 2341.173096 277.654205 0.000000 2632.775146 264.949402 50.693027 2632.775146 264.949402 0.000000 2924.524170 257.325287 50.693027 2924.524170 257.325287 0.000000 3216.345215 254.783691 50.693027 3216.345215 254.783691 0.000000 3508.167236 257.325287 50.693027 3508.167236 257.325287 0.000000 3799.916260 264.949402 50.693027 3799.916260 264.949402 0.000000 4091.518311 277.654205 50.693027 4091.518311 277.654205 0.000000 4382.901367 295.436279 50.693027 4382.901367 295.436279 0.000000 4673.991211 318.291504 50.693027 4673.991211 318.291504 0.000000 4809.868164 331.341705 50.693027 4809.868164 331.341705 0.000000 4381.627441 40.501900 0.000000 4809.868164 331.341705 50.693027 4809.868164 331.341705 0.000000 4381.627441 40.501900 50.693027 2051.062988 40.501900 0.000000 4381.627441 40.501900 50.693027 4381.627441 40.501900 0.000000 2051.062988 40.501900 50.693027 "
								            />
							</IndexedFaceSet>
						</Shape>
					</Group>
				</Transform>
			</Transform>
			<Transform DEF="group_0_012_TRANSFORM"
			           translation="-2558.613037 -0.000000 -946.850342"
			           scale="1.000000 1.000000 1.000000"
			           rotation="1.000000 0.000000 0.000000 0.000000"
			           >
				<Transform DEF="group_0_012_ifs_TRANSFORM"
				           translation="0.000044 0.000000 0.000032"
				           scale="1.000000 1.000000 1.000000"
				           rotation="1.000000 0.000000 0.000000 0.000000"
				           >
					<Group DEF="group_ME_ID83">
						<Shape>
							<Appearance>
								<Material USE="MA_Type62_part_1" />
							</Appearance>
							<IndexedFaceSet solid="true"
							                coordIndex="0 1 2 -1 1 0 3 -1 4 5 6 -1 5 4 7 -1 8 9 10 -1 9 8 11 -1 12 13 14 -1 13 12 15 -1 16 17 18 -1 17 16 19 -1 "
							                >
								<Coordinate DEF="coords_ME_ID83"
								            point="1782.599121 578.192871 485.040100 1948.859131 671.486694 1413.414062 1948.859131 671.486694 485.040100 1782.599121 578.192871 1413.414062 1948.859131 671.486694 485.040100 1788.882080 564.645813 485.040100 1782.599121 578.192871 485.040100 1955.141113 657.939697 485.040100 1782.599121 578.192871 1413.414062 1788.882080 564.645813 485.040100 1788.882080 564.645813 1413.414062 1782.599121 578.192871 485.040100 1788.882080 564.645813 1413.414062 1948.859131 671.486694 1413.414062 1782.599121 578.192871 1413.414062 1955.141113 657.939697 1413.414062 1955.141113 657.939697 485.040100 1948.859131 671.486694 1413.414062 1955.141113 657.939697 1413.414062 1948.859131 671.486694 485.040100 "
								            />
							</IndexedFaceSet>
						</Shape>
					</Group>
				</Transform>
			</Transform>
			<Transform DEF="group_0_011_TRANSFORM"
			           translation="-2558.613037 -0.000000 -946.850342"
			           scale="1.000000 1.000000 1.000000"
			           rotation="1.000000 0.000000 0.000000 0.000000"
			           >
				<Transform DEF="group_0_011_ifs_TRANSFORM"
				           translation="0.000044 0.000000 0.000032"
				           scale="1.000000 1.000000 1.000000"
				           rotation="1.000000 0.000000 0.000000 0.000000"
				           >
					<Group DEF="group_ME_ID77">
						<Shape>
							<Appearance>
								<Material USE="MA_Type62_part_1" />
							</Appearance>
							<IndexedFaceSet solid="true"
							                coordIndex="0 1 2 -1 1 0 3 -1 4 5 6 -1 5 4 7 -1 8 9 10 -1 9 8 11 -1 12 13 14 -1 13 12 15 -1 16 17 18 -1 17 16 19 -1 "
							                >
								<Coordinate DEF="coords_ME_ID77"
								            point="1549.631104 447.466278 485.040100 1716.917114 541.336060 1413.414062 1716.917114 541.336060 485.040100 1549.631104 447.466278 1413.414062 1723.199097 527.789001 485.040100 1716.917114 541.336060 1413.414062 1723.199097 527.789001 1413.414062 1716.917114 541.336060 485.040100 1716.917114 541.336060 485.040100 1555.913086 433.919189 485.040100 1549.631104 447.466278 485.040100 1723.199097 527.789001 485.040100 1549.631104 447.466278 1413.414062 1555.913086 433.919189 485.040100 1555.913086 433.919189 1413.414062 1549.631104 447.466278 485.040100 1555.913086 433.919189 1413.414062 1716.917114 541.336060 1413.414062 1549.631104 447.466278 1413.414062 1723.199097 527.789001 1413.414062 "
								            />
							</IndexedFaceSet>
						</Shape>
					</Group>
				</Transform>
			</Transform>
			<Transform DEF="group_0_010_TRANSFORM"
			           translation="-2558.613037 -0.000000 -946.850342"
			           scale="1.000000 1.000000 1.000000"
			           rotation="1.000000 0.000000 0.000000 0.000000"
			           >
				<Transform DEF="group_0_010_ifs_TRANSFORM"
				           translation="0.000044 0.000000 0.000032"
				           scale="1.000000 1.000000 1.000000"
				           rotation="1.000000 0.000000 0.000000 0.000000"
				           >
					<Group DEF="group_ME_ID71">
						<Shape>
							<Appearance>
								<Material USE="MA_Type62_part_1" />
							</Appearance>
							<IndexedFaceSet solid="true"
							                creaseAngle="4.0000"
							                coordIndex="0 1 2 -1 1 0 3 -1 4 5 6 -1 5 4 7 -1 5 7 8 -1 9 10 11 -1 10 9 12 -1 10 12 13 -1 13 12 14 -1 15 16 17 -1 16 15 18 -1 19 20 21 -1 20 19 22 -1 20 22 23 -1 23 22 24 -1 25 26 27 -1 26 25 28 -1 29 21 30 -1 21 29 31 -1 21 31 19 -1 31 29 32 -1 33 34 35 -1 34 33 36 -1 37 38 39 -1 38 37 40 -1 38 40 41 -1 42 43 44 -1 43 42 45 -1 46 45 23 -1 45 46 43 -1 23 47 20 -1 47 23 48 -1 21 49 50 -1 49 21 20 -1 51 52 53 -1 52 51 54 -1 52 54 42 -1 42 44 52 -1 55 56 57 -1 56 55 58 -1 58 55 50 -1 50 55 21 -1 59 30 60 -1 30 59 29 -1 42 61 45 -1 61 42 62 -1 23 63 48 -1 63 23 45 -1 20 64 49 -1 64 20 47 -1 48 65 47 -1 65 48 66 -1 67 54 51 -1 54 67 68 -1 69 62 42 -1 62 69 70 -1 71 57 56 -1 72 57 73 -1 57 72 55 -1 59 74 75 -1 74 59 60 -1 45 76 63 -1 76 45 61 -1 48 77 66 -1 77 48 63 -1 47 78 64 -1 78 47 79 -1 79 47 65 -1 79 80 78 -1 81 82 83 -1 82 81 84 -1 82 84 85 -1 85 84 86 -1 86 84 87 -1 86 87 88 -1 88 87 89 -1 89 87 90 -1 91 92 93 -1 92 91 94 -1 94 91 95 -1 94 95 96 -1 96 95 81 -1 96 81 83 -1 96 83 97 -1 97 83 98 -1 97 98 99 -1 97 99 100 -1 97 100 101 -1 101 100 88 -1 88 100 102 -1 88 102 86 -1 68 103 104 -1 103 68 67 -1 105 70 69 -1 70 105 106 -1 57 107 73 -1 107 57 71 -1 72 108 109 -1 108 72 73 -1 75 110 111 -1 110 75 74 -1 76 112 63 -1 63 113 77 -1 113 63 112 -1 113 112 114 -1 115 116 117 -1 116 115 80 -1 116 80 79 -1 118 119 120 -1 121 122 123 -1 122 121 124 -1 125 122 126 -1 122 125 123 -1 127 126 128 -1 126 127 125 -1 129 128 130 -1 128 129 127 -1 116 131 117 -1 131 116 132 -1 132 116 130 -1 130 116 129 -1 130 133 132 -1 114 120 113 -1 120 114 134 -1 120 134 118 -1 118 134 135 -1 104 136 137 -1 136 104 103 -1 138 105 139 -1 105 138 140 -1 106 105 140 -1 141 142 143 -1 142 141 73 -1 142 73 107 -1 143 142 144 -1 143 144 145 -1 109 146 147 -1 146 109 108 -1 148 149 150 -1 149 148 115 -1 149 115 117 -1 124 151 122 -1 151 124 152 -1 126 151 153 -1 151 126 122 -1 128 153 154 -1 153 128 126 -1 130 154 155 -1 154 130 128 -1 133 155 156 -1 155 133 130 -1 131 149 117 -1 157 135 134 -1 158 139 159 -1 139 158 138 -1 138 158 160 -1 161 145 144 -1 145 161 162 -1 145 163 143 -1 163 145 164 -1 164 145 165 -1 141 166 167 -1 166 141 143 -1 148 150 168 -1 152 169 151 -1 169 152 170 -1 153 169 171 -1 169 153 151 -1 154 172 173 -1 172 154 153 -1 155 173 174 -1 173 155 154 -1 156 174 175 -1 174 156 155 -1 176 177 178 -1 162 165 145 -1 165 162 161 -1 165 161 179 -1 143 180 181 -1 180 143 163 -1 170 182 169 -1 182 170 183 -1 182 183 184 -1 184 183 185 -1 171 186 187 -1 186 171 169 -1 173 188 189 -1 188 173 172 -1 190 191 192 -1 191 190 174 -1 191 174 173 -1 190 175 174 -1 184 185 193 -1 184 194 182 -1 194 184 195 -1 187 196 197 -1 196 187 186 -1 189 198 199 -1 198 189 188 -1 200 201 202 -1 201 200 203 -1 201 203 192 -1 201 192 191 -1 195 193 204 -1 193 195 184 -1 205 194 195 -1 194 205 206 -1 207 196 208 -1 196 207 197 -1 209 198 210 -1 198 209 199 -1 202 211 200 -1 201 212 202 -1 212 201 213 -1 214 204 215 -1 204 214 195 -1 216 206 205 -1 206 216 217 -1 218 208 219 -1 208 218 207 -1 220 210 221 -1 210 220 209 -1 211 222 223 -1 222 211 202 -1 213 224 212 -1 224 213 225 -1 226 227 228 -1 227 226 229 -1 229 226 230 -1 229 230 215 -1 215 230 214 -1 223 231 232 -1 231 223 222 -1 227 233 228 -1 234 235 236 -1 235 234 228 -1 228 237 235 -1 237 228 238 -1 238 228 233 -1 238 239 237 -1 "
							                >
								<Coordinate DEF="coords_ME_ID71"
								            point="0.000000 1489.161011 915.217041 2549.479004 981.240784 949.227051 2534.283203 962.417786 915.217041 0.000000 1511.143066 949.227051 2534.283203 962.417786 915.217041 0.000000 1445.198120 915.217041 0.000000 1489.161011 915.217041 2533.379150 961.780762 915.217041 2492.083008 927.226074 915.217041 0.000000 1445.198120 983.237061 0.000000 1445.198120 915.217041 0.000000 1423.217041 949.227051 0.000000 1489.161011 983.237061 0.000000 1489.161011 915.217041 0.000000 1511.143066 949.227051 0.000000 1511.143066 949.227051 2534.283203 962.417786 983.237061 2549.479004 981.240784 949.227051 0.000000 1489.161011 983.237061 2533.379150 961.780762 915.217041 2681.631104 1016.074036 704.918091 2614.906006 961.780762 674.431885 2534.283203 962.417786 915.217041 2598.909912 1016.074036 949.227051 2549.479004 981.240784 949.227051 2461.816162 911.535400 949.227051 0.000000 1445.198120 915.217041 2492.083008 927.226074 915.217041 0.000000 1423.217041 949.227051 2449.242188 901.014038 949.227051 2552.014160 901.014038 645.696899 2492.083008 927.226074 915.217041 2461.816162 911.535400 949.227051 2492.083008 927.226074 983.237061 0.000000 1423.217041 949.227051 2461.816162 911.535400 949.227051 0.000000 1445.198120 983.237061 2492.083008 927.226074 983.237061 0.000000 1489.161011 983.237061 0.000000 1445.198120 983.237061 2533.379150 961.780762 983.237061 2534.283203 962.417786 983.237061 2614.906006 961.780762 1224.022095 2534.283203 962.417786 983.237061 2533.379150 961.780762 983.237061 2681.631104 1016.074036 1193.536011 2549.479004 981.240784 949.227051 2751.745117 1063.532104 736.952881 2679.871094 1063.532104 949.227051 2892.307129 1016.074036 538.195557 2845.873047 961.780762 491.652679 2449.242188 901.014038 949.227051 2492.083008 927.226074 983.237061 2461.816162 911.535400 949.227051 2552.014160 901.014038 1252.757080 2552.014160 901.014038 645.696899 2839.825195 912.781067 433.135193 2832.794189 901.014038 423.497498 2816.139893 924.841064 467.459198 2381.529053 834.177185 949.227051 2493.373047 834.177185 618.904114 2814.448242 1016.074036 1298.643066 2752.020020 961.780762 1332.529053 2751.745117 1063.532104 1161.501099 2935.957031 1063.532104 591.173157 2824.783203 1103.841064 770.323608 2764.208252 1103.841064 949.227051 2381.529053 834.177185 949.227051 2493.373047 834.177185 1279.549927 2552.014160 901.014038 1252.757080 2688.825195 901.014038 1361.024048 2856.087158 901.014038 418.558197 2493.373047 834.177185 618.904114 2798.937012 834.177185 377.090881 2439.373047 761.714294 594.231384 2319.175049 761.714294 949.227051 2875.695068 1063.532104 1259.591064 2824.783203 1103.841064 1128.130005 2947.644043 1075.142090 608.183594 2990.276123 1103.841064 639.357178 2956.129150 1071.199097 592.551086 2764.208252 1103.841064 949.227051 3136.273193 1103.841064 972.986389 3296.417236 1103.841064 972.986389 2824.783203 1103.841064 1128.130005 3056.201172 1103.841064 1111.675049 3136.273193 1103.841064 1250.364014 2990.276123 1103.841064 1259.097046 3442.414062 1103.841064 1259.097046 3270.337158 1103.841064 1295.585083 3216.345215 1103.841064 1307.034058 2990.276123 1103.841064 639.357178 3442.414062 1103.841064 639.357178 3216.345215 1103.841064 591.420105 3607.908203 1103.841064 770.323608 2824.783203 1103.841064 770.323608 3668.483154 1103.841064 949.227051 3607.908203 1103.841064 1128.130005 3364.226074 1103.841064 1090.434082 3376.489258 1103.841064 1111.675049 3296.417236 1103.841064 1250.364014 3528.010010 1103.841064 1191.359009 3291.032227 1103.841064 1250.364014 2319.175049 761.714294 949.227051 2439.373047 761.714294 1304.223022 2493.373047 834.177185 1279.549927 2625.283203 834.177185 1383.939087 2944.681152 834.177185 346.186584 2767.760010 761.714294 334.356506 2439.373047 761.714294 594.231384 2404.132080 705.900391 578.129883 2278.482178 705.900391 949.227051 2891.994141 1074.545044 1247.582031 2990.276123 1103.841064 1259.097046 2960.766113 1075.632080 1299.547119 2967.606201 1063.532104 577.423096 3216.345215 1103.841064 591.420105 3216.345215 1063.532104 524.678772 3216.345215 1063.729980 1373.447021 3270.337158 1103.841064 1295.585083 3216.345215 1103.841064 1307.034058 3528.010010 1103.841064 1191.359009 3680.946289 1063.532104 1161.501099 3607.908203 1103.841064 1128.130005 3556.573242 1063.532104 1259.926025 3668.483154 1103.841064 949.227051 3752.819824 1063.532104 949.227051 3607.908203 1103.841064 770.323608 3680.946289 1063.532104 736.952881 3442.414062 1103.841064 639.357178 3484.583252 1063.532104 581.557495 3285.167236 1063.532104 539.272095 3352.364258 1078.893066 578.955017 3378.556152 1063.532104 559.074890 3021.652100 1063.532104 1332.491089 3216.126221 1063.532104 1373.729126 2278.482178 705.900391 949.227051 2404.132080 705.900391 1320.324097 2722.976074 761.714294 1528.657104 2439.373047 761.714294 1304.223022 2620.525146 828.744202 1385.227051 2767.760010 761.714294 334.356506 3030.601074 766.955078 282.191010 3216.345215 761.714294 239.235687 3162.688232 834.177185 299.959015 3216.345215 834.177185 288.581207 2747.414062 705.900391 306.467896 2404.132080 705.900391 578.129883 3033.519043 1016.074036 499.376678 3216.345215 1046.576050 501.787292 3130.266113 1016.074036 478.862030 3751.059814 1016.074036 1193.536011 3585.896240 1016.074036 1324.241089 3833.781250 1016.074036 949.227051 3751.059814 1016.074036 704.918091 3525.063232 1016.074036 526.071472 3453.632080 1016.074036 510.924774 3181.035156 1027.738037 1414.609985 2747.414062 705.900391 1591.986084 2404.132080 705.900391 1320.324097 2758.591064 736.561401 1576.666016 3216.345215 860.508789 309.692291 3216.345215 856.537354 306.508179 3365.300049 761.714294 270.821014 3318.649170 795.464478 283.911896 3290.515137 834.177185 304.308502 3216.345215 705.900391 207.032700 2747.414062 705.900391 306.467896 3065.429199 991.690002 465.226898 3817.785156 961.780762 1224.022095 3615.784180 961.780762 1383.878052 3910.828125 961.780762 949.227051 3910.828125 961.780762 949.227051 3817.785156 961.780762 674.431885 3563.586182 961.780762 473.267883 3534.556152 961.780762 467.112183 2784.837158 705.900391 1599.922119 2758.591064 736.561401 1576.666016 2747.414062 705.900391 1591.986084 3258.943115 876.068054 331.199402 3415.073242 705.900391 249.172287 3216.345215 705.900391 207.032700 3880.676270 901.014038 1252.757080 3635.103271 922.981018 1418.717041 3599.897217 901.014038 1474.956055 3591.024170 915.863098 1462.794067 3880.676270 901.014038 1252.757080 3983.449219 901.014038 949.227051 3983.449219 901.014038 949.227051 3880.676270 901.014038 645.696899 3584.699951 926.446899 444.328033 3880.676270 901.014038 645.696899 3616.839844 901.014038 436.905304 3560.593262 901.014038 1483.291016 3939.317139 834.177185 1279.549927 3633.753174 834.177185 1521.363037 3939.317139 834.177185 1279.549927 4051.161133 834.177185 949.227051 4051.161133 834.177185 949.227051 3939.317139 834.177185 618.904114 3608.579834 883.872070 411.595398 3939.317139 834.177185 618.904114 3633.753174 834.177185 377.090881 3617.656250 900.333069 436.805878 3433.755127 834.177185 1563.772095 3664.931152 761.714294 1564.097046 3993.318115 761.714294 1304.223022 4113.516113 761.714294 949.227051 3993.318115 761.714294 1304.223022 3993.318115 761.714294 594.231384 4113.516113 761.714294 949.227051 3585.386230 834.177185 366.834686 3664.931152 761.714294 334.356506 3993.318115 761.714294 594.231384 3664.931152 761.714294 1564.097046 3305.459229 761.714294 1640.322021 3685.277100 705.900391 1591.986084 4028.559082 705.900391 1320.324097 4154.208984 705.900391 949.227051 4028.559082 705.900391 1320.324097 4028.559082 705.900391 578.129883 4154.208984 705.900391 949.227051 3664.931152 761.714294 334.356506 3552.773193 761.714294 310.573792 3685.277100 705.900391 306.467896 4028.559082 705.900391 578.129883 3216.345215 705.900391 1691.421021 3292.108154 761.714294 1643.153076 3216.345215 761.714294 1659.218140 3299.290039 758.000366 1643.773071 3685.277100 705.900391 1591.986084 3685.277100 705.900391 306.467896 3528.454102 705.900391 273.214203 3216.345215 798.467163 1634.189941 3216.345215 705.900391 1691.421021 2839.038086 761.714294 1579.212036 2789.224121 705.900391 1600.852051 2907.976074 834.177185 1544.484131 3062.965088 834.177185 1577.349121 2936.079834 861.738403 1528.347046 "
								            />
							</IndexedFaceSet>
						</Shape>
					</Group>
				</Transform>
			</Transform>
			<Transform DEF="group_0_009_TRANSFORM"
			           translation="-2558.613037 -0.000000 -946.850342"
			           scale="1.000000 1.000000 1.000000"
			           rotation="1.000000 0.000000 0.000000 0.000000"
			           >
				<Transform DEF="group_0_009_ifs_TRANSFORM"
				           translation="0.000044 0.000000 0.000032"
				           scale="1.000000 1.000000 1.000000"
				           rotation="1.000000 0.000000 0.000000 0.000000"
				           >
					<Group DEF="group_ME_ID63">
						<Shape>
							<Appearance>
								<Material DEF="MA_Type62_part_3"
								          diffuseColor="0.000 0.000 0.000"
								          specularColor="0.401 0.401 0.401"
								          emissiveColor="0.000 0.000 0.000"
								          ambientIntensity="0.333"
								          shininess="0.098"
								          transparency="0.0"
								          />
							</Appearance>
							<IndexedFaceSet solid="true"
							                coordIndex="0 1 2 -1 1 0 3 -1 1 3 4 -1 4 3 5 -1 6 7 8 -1 7 6 9 -1 10 11 12 -1 11 10 13 -1 13 10 14 -1 15 16 17 -1 16 15 18 -1 19 20 21 -1 20 19 22 -1 20 22 23 -1 24 25 26 -1 25 24 27 -1 28 29 30 -1 29 28 31 -1 "
							                >
								<Coordinate DEF="coords_ME_ID63"
								            point="3136.273193 1154.534058 972.986389 3376.489258 1154.534058 1111.675049 3296.417236 1154.534058 972.986389 3056.201172 1154.534058 1111.675049 3296.417236 1154.534058 1250.364014 3136.273193 1154.534058 1250.364014 3136.273193 1154.534058 1250.364014 3056.201172 1103.841064 1111.675049 3136.273193 1103.841064 1250.364014 3056.201172 1154.534058 1111.675049 3291.032227 1103.841064 1250.364014 3136.273193 1154.534058 1250.364014 3136.273193 1103.841064 1250.364014 3296.417236 1154.534058 1250.364014 3296.417236 1103.841064 1250.364014 3376.489258 1103.841064 1111.675049 3296.417236 1154.534058 1250.364014 3296.417236 1103.841064 1250.364014 3376.489258 1154.534058 1111.675049 3364.226074 1103.841064 1090.434082 3376.489258 1154.534058 1111.675049 3376.489258 1103.841064 1111.675049 3296.417236 1103.841064 972.986389 3296.417236 1154.534058 972.986389 3296.417236 1154.534058 972.986389 3136.273193 1103.841064 972.986389 3136.273193 1154.534058 972.986389 3296.417236 1103.841064 972.986389 3056.201172 1154.534058 1111.675049 3136.273193 1103.841064 972.986389 3056.201172 1103.841064 1111.675049 3136.273193 1154.534058 972.986389 "
								            />
							</IndexedFaceSet>
						</Shape>
					</Group>
				</Transform>
			</Transform>
			<Transform DEF="group_0_008_TRANSFORM"
			           translation="-2558.613037 -0.000000 -946.850342"
			           scale="1.000000 1.000000 1.000000"
			           rotation="1.000000 0.000000 0.000000 0.000000"
			           >
				<Transform DEF="group_0_008_ifs_TRANSFORM"
				           translation="0.000044 0.000000 0.000032"
				           scale="1.000000 1.000000 1.000000"
				           rotation="1.000000 0.000000 0.000000 0.000000"
				           >
					<Group DEF="group_ME_ID57">
						<Shape>
							<Appearance>
								<Material USE="MA_Type62_part_1" />
							</Appearance>
							<IndexedFaceSet solid="true"
							                coordIndex="0 1 2 -1 1 0 3 -1 4 5 6 -1 5 4 7 -1 8 9 10 -1 9 8 11 -1 12 13 14 -1 13 12 15 -1 16 17 18 -1 17 16 19 -1 "
							                >
								<Coordinate DEF="coords_ME_ID57"
								            point="3963.492188 728.712280 1568.949097 4336.777344 728.712280 1838.544067 4336.777344 728.712280 1568.949097 3963.492188 728.712280 1838.544067 4336.777344 728.712280 1568.949097 3963.492188 705.900391 1568.949097 3963.492188 728.712280 1568.949097 4336.777344 705.900391 1568.949097 3963.492188 728.712280 1838.544067 3963.492188 705.900391 1568.949097 3963.492188 705.900391 1838.544067 3963.492188 728.712280 1568.949097 4336.777344 705.900391 1838.544067 3963.492188 728.712280 1838.544067 3963.492188 705.900391 1838.544067 4336.777344 728.712280 1838.544067 4336.777344 705.900391 1568.949097 4336.777344 728.712280 1838.544067 4336.777344 705.900391 1838.544067 4336.777344 728.712280 1568.949097 "
								            />
							</IndexedFaceSet>
						</Shape>
					</Group>
				</Transform>
			</Transform>
			<Transform DEF="group_0_007_TRANSFORM"
			           translation="-2558.613037 -0.000000 -946.850342"
			           scale="1.000000 1.000000 1.000000"
			           rotation="1.000000 0.000000 0.000000 0.000000"
			           >
				<Transform DEF="group_0_007_ifs_TRANSFORM"
				           translation="0.000044 0.000000 0.000032"
				           scale="1.000000 1.000000 1.000000"
				           rotation="1.000000 0.000000 0.000000 0.000000"
				           >
					<Group DEF="group_ME_ID51">
						<Shape>
							<Appearance>
								<Material USE="MA_Type62_part_1" />
							</Appearance>
							<IndexedFaceSet solid="true"
							                coordIndex="0 1 2 -1 1 0 3 -1 4 5 6 -1 5 4 7 -1 8 9 10 -1 9 8 11 -1 12 13 14 -1 13 12 15 -1 16 17 18 -1 17 16 19 -1 "
							                >
								<Coordinate DEF="coords_ME_ID51"
								            point="3963.492188 728.712280 59.909939 4336.777344 728.712280 329.504700 4336.777344 728.712280 59.909939 3963.492188 728.712280 329.504700 3963.492188 728.712280 329.504700 3963.492188 705.900391 59.909939 3963.492188 705.900391 329.504700 3963.492188 728.712280 59.909939 4336.777344 705.900391 329.504700 3963.492188 728.712280 329.504700 3963.492188 705.900391 329.504700 4336.777344 728.712280 329.504700 4336.777344 705.900391 59.909939 4336.777344 728.712280 329.504700 4336.777344 705.900391 329.504700 4336.777344 728.712280 59.909939 4336.777344 728.712280 59.909939 3963.492188 705.900391 59.909939 3963.492188 728.712280 59.909939 4336.777344 705.900391 59.909939 "
								            />
							</IndexedFaceSet>
						</Shape>
					</Group>
				</Transform>
			</Transform>
			<Transform DEF="group_0_006_TRANSFORM"
			           translation="-2558.613037 -0.000000 -946.850342"
			           scale="1.000000 1.000000 1.000000"
			           rotation="1.000000 0.000000 0.000000 0.000000"
			           >
				<Transform DEF="group_0_006_ifs_TRANSFORM"
				           translation="0.000044 0.000000 0.000032"
				           scale="1.000000 1.000000 1.000000"
				           rotation="1.000000 0.000000 0.000000 0.000000"
				           >
					<Group DEF="group_ME_ID45">
						<Shape>
							<Appearance>
								<Material USE="MA_Type62_part_2" />
							</Appearance>
							<IndexedFaceSet solid="true"
							                coordIndex="0 1 2 -1 1 0 3 -1 1 3 4 -1 "
							                >
								<Coordinate DEF="coords_ME_ID45"
								            point="2776.235107 609.594910 0.000000 3229.175049 386.534393 0.000000 2446.579102 386.534393 0.000000 3034.682129 544.429871 0.000000 3146.863037 674.873596 0.000000 "
								            />
							</IndexedFaceSet>
						</Shape>
					</Group>
				</Transform>
			</Transform>
			<Transform DEF="group_0_005_TRANSFORM"
			           translation="-2558.613037 -0.000000 -946.850342"
			           scale="1.000000 1.000000 1.000000"
			           rotation="1.000000 0.000000 0.000000 0.000000"
			           >
				<Transform DEF="group_0_005_ifs_TRANSFORM"
				           translation="0.000044 0.000000 0.000032"
				           scale="1.000000 1.000000 1.000000"
				           rotation="1.000000 0.000000 0.000000 0.000000"
				           >
					<Group DEF="group_ME_ID39">
						<Shape>
							<Appearance>
								<Material USE="MA_Type62_part_4" />
							</Appearance>
							<IndexedFaceSet solid="true"
							                creaseAngle="4.0000"
							                coordIndex="0 1 2 -1 1 0 3 -1 4 5 6 -1 5 4 7 -1 8 9 10 -1 9 8 11 -1 9 11 12 -1 12 11 13 -1 14 15 16 -1 15 14 17 -1 18 19 20 -1 19 18 21 -1 21 18 22 -1 21 22 23 -1 23 22 24 -1 24 22 25 -1 19 26 20 -1 26 19 27 -1 26 27 28 -1 26 28 29 -1 29 28 30 -1 29 30 31 -1 31 30 32 -1 31 32 33 -1 33 32 34 -1 33 34 35 -1 35 34 36 -1 35 36 37 -1 37 36 38 -1 38 36 39 -1 38 39 40 -1 40 39 41 -1 40 41 42 -1 42 41 43 -1 42 43 44 -1 44 43 45 -1 44 45 46 -1 46 45 47 -1 46 47 25 -1 25 47 24 -1 48 49 50 -1 49 48 51 -1 52 17 14 -1 17 52 53 -1 54 53 52 -1 53 54 55 -1 56 55 54 -1 55 56 57 -1 58 57 56 -1 57 58 59 -1 60 59 58 -1 59 60 61 -1 62 61 60 -1 61 62 63 -1 64 63 62 -1 63 64 65 -1 66 65 64 -1 65 66 67 -1 68 67 66 -1 67 68 69 -1 70 69 68 -1 69 70 71 -1 72 71 70 -1 71 72 73 -1 "
							                >
								<Coordinate DEF="coords_ME_ID39"
								            point="4961.223145 386.534393 1898.454102 4392.078125 0.000000 1568.949097 4961.223145 386.534393 1568.949097 4392.078125 0.000000 1898.454102 4392.078125 0.000000 1898.454102 2040.613037 0.000000 1568.949097 4392.078125 0.000000 1568.949097 2040.613037 0.000000 1898.454102 2040.613037 174.891006 1568.949097 2040.613037 0.000000 1568.949097 1471.468018 386.534393 1568.949097 4392.078125 174.891006 1568.949097 4392.078125 0.000000 1568.949097 4961.223145 386.534393 1568.949097 4671.079102 358.667786 1568.949097 4961.223145 386.534393 1898.454102 4961.223145 386.534393 1568.949097 4671.079102 358.667786 1898.454102 2040.613037 0.000000 1898.454102 1623.303101 331.166504 1898.454102 1471.468018 386.534393 1898.454102 2051.097168 40.630440 1898.454102 4392.078125 0.000000 1898.454102 4381.594238 40.630440 1898.454102 4809.388184 331.166504 1898.454102 4961.223145 386.534393 1898.454102 1761.612061 358.667786 1898.454102 1758.691040 318.163300 1898.454102 2049.783203 295.308014 1898.454102 2052.121094 335.858276 1898.454102 2341.166992 277.525787 1898.454102 2342.921143 318.111603 1898.454102 2632.771240 264.821014 1898.454102 2633.941162 305.432281 1898.454102 2924.522217 257.196808 1898.454102 2925.107178 297.823395 1898.454102 3216.345215 254.655197 1898.454102 3216.345215 295.286896 1898.454102 3507.584229 297.823395 1898.454102 3508.169189 257.196808 1898.454102 3798.750000 305.432281 1898.454102 3799.919189 264.821014 1898.454102 4089.769287 318.111603 1898.454102 4091.523193 277.525787 1898.454102 4380.569824 335.858276 1898.454102 4382.908203 295.308014 1898.454102 4671.079102 358.667786 1898.454102 4674.000000 318.163300 1898.454102 2040.613037 0.000000 1898.454102 1471.468018 386.534393 1568.949097 2040.613037 0.000000 1568.949097 1471.468018 386.534393 1898.454102 4380.569824 335.858276 1568.949097 4380.569824 335.858276 1898.454102 4089.769287 318.111603 1568.949097 4089.769287 318.111603 1898.454102 3798.750000 305.432281 1568.949097 3798.750000 305.432281 1898.454102 3507.584229 297.823395 1568.949097 3507.584229 297.823395 1898.454102 3216.345215 295.286896 1568.949097 3216.345215 295.286896 1898.454102 2925.107178 297.823395 1568.949097 2925.107178 297.823395 1898.454102 2633.941162 305.432281 1568.949097 2633.941162 305.432281 1898.454102 2342.921143 318.111603 1568.949097 2342.921143 318.111603 1898.454102 2052.121094 335.858276 1568.949097 2052.121094 335.858276 1898.454102 1761.612061 358.667786 1568.949097 1761.612061 358.667786 1898.454102 1471.468018 386.534393 1568.949097 1471.468018 386.534393 1898.454102 "
								            />
							</IndexedFaceSet>
						</Shape>
					</Group>
				</Transform>
			</Transform>
			<Transform DEF="group_0_004_TRANSFORM"
			           translation="-2558.613037 -0.000000 -946.850342"
			           scale="1.000000 1.000000 1.000000"
			           rotation="1.000000 0.000000 0.000000 0.000000"
			           >
				<Transform DEF="group_0_004_ifs_TRANSFORM"
				           translation="0.000044 0.000000 0.000032"
				           scale="1.000000 1.000000 1.000000"
				           rotation="1.000000 0.000000 0.000000 0.000000"
				           >
					<Group DEF="group_ME_ID33">
						<Shape>
							<Appearance>
								<Material USE="MA_Type62_part_2" />
							</Appearance>
							<IndexedFaceSet solid="true"
							                coordIndex="0 1 2 -1 1 0 3 -1 3 0 4 -1 3 4 5 -1 4 6 5 -1 "
							                >
								<Coordinate DEF="coords_ME_ID33"
								            point="2141.904053 705.900391 0.000000 2719.753174 705.900391 34.563431 2599.225098 705.900391 0.000000 2390.855225 705.900391 34.563431 2311.972168 705.900391 301.842804 2390.855225 705.900391 158.991791 2629.706055 705.900391 158.991791 "
								            />
							</IndexedFaceSet>
						</Shape>
					</Group>
				</Transform>
			</Transform>
			<Transform DEF="group_0_003_TRANSFORM"
			           translation="-2558.613037 -0.000000 -946.850342"
			           scale="1.000000 1.000000 1.000000"
			           rotation="1.000000 0.000000 0.000000 0.000000"
			           >
				<Transform DEF="group_0_003_ifs_TRANSFORM"
				           translation="0.000044 0.000000 0.000032"
				           scale="1.000000 1.000000 1.000000"
				           rotation="1.000000 0.000000 0.000000 0.000000"
				           >
					<Group DEF="group_ME_ID25">
						<Shape>
							<Appearance>
								<Material USE="MA_Type62_part_4" />
							</Appearance>
							<IndexedFaceSet solid="true"
							                creaseAngle="4.0000"
							                coordIndex="0 1 2 -1 1 0 3 -1 4 5 6 -1 5 4 7 -1 8 9 10 -1 9 8 11 -1 9 11 12 -1 12 11 13 -1 14 15 16 -1 15 14 17 -1 18 19 20 -1 19 18 21 -1 21 18 22 -1 22 18 23 -1 22 23 24 -1 24 23 25 -1 24 25 26 -1 26 25 27 -1 26 27 28 -1 28 27 29 -1 28 29 30 -1 30 29 31 -1 30 31 32 -1 32 31 33 -1 32 33 34 -1 32 34 35 -1 35 34 36 -1 35 36 37 -1 37 36 38 -1 37 38 39 -1 39 38 40 -1 39 40 41 -1 41 40 42 -1 41 42 43 -1 19 44 20 -1 44 19 45 -1 44 45 46 -1 46 45 47 -1 46 47 43 -1 46 43 42 -1 48 49 50 -1 49 48 51 -1 52 53 54 -1 53 52 55 -1 54 56 57 -1 56 54 53 -1 57 58 59 -1 58 57 56 -1 59 60 61 -1 60 59 58 -1 61 62 63 -1 62 61 60 -1 63 64 65 -1 64 63 62 -1 65 66 67 -1 66 65 64 -1 67 68 69 -1 68 67 66 -1 69 70 71 -1 70 69 68 -1 71 72 73 -1 72 71 70 -1 73 51 48 -1 51 73 72 -1 "
							                >
								<Coordinate DEF="coords_ME_ID25"
								            point="4392.078125 0.000000 329.504700 2040.613037 0.000000 0.000000 4392.078125 0.000000 0.000000 2040.613037 0.000000 329.504700 4961.223145 386.534393 329.504700 4392.078125 0.000000 0.000000 4961.223145 386.534393 0.000000 4392.078125 0.000000 329.504700 2040.613037 0.000000 329.504700 2040.613037 174.891006 329.504700 1471.468018 386.534393 329.504700 4392.078125 0.000000 329.504700 4392.078125 174.891006 329.504700 4961.223145 386.534393 329.504700 2040.613037 0.000000 329.504700 1471.468018 386.534393 0.000000 2040.613037 0.000000 0.000000 1471.468018 386.534393 329.504700 1761.612061 358.667786 0.000000 1622.822021 331.341705 0.000000 1471.468018 386.534393 0.000000 1758.700073 318.291504 0.000000 2049.790039 295.436279 0.000000 2052.121094 335.858276 0.000000 2341.173096 277.654205 0.000000 2342.921143 318.111603 0.000000 2632.775146 264.949402 0.000000 2633.941162 305.432281 0.000000 2924.524170 257.325287 0.000000 2925.107178 297.823395 0.000000 3216.345215 254.783691 0.000000 3216.345215 295.286896 0.000000 3508.167236 257.325287 0.000000 3507.584229 297.823395 0.000000 3798.750000 305.432281 0.000000 3799.916260 264.949402 0.000000 4089.769287 318.111603 0.000000 4091.518311 277.654205 0.000000 4380.569824 335.858276 0.000000 4382.901367 295.436279 0.000000 4671.079102 358.667786 0.000000 4673.991211 318.291504 0.000000 4961.223145 386.534393 0.000000 4809.868164 331.341705 0.000000 2040.613037 0.000000 0.000000 2051.062988 40.501900 0.000000 4392.078125 0.000000 0.000000 4381.627441 40.501900 0.000000 4671.079102 358.667786 0.000000 4961.223145 386.534393 329.504700 4961.223145 386.534393 0.000000 4671.079102 358.667786 329.504700 1471.468018 386.534393 0.000000 1761.612061 358.667786 329.504700 1761.612061 358.667786 0.000000 1471.468018 386.534393 329.504700 2052.121094 335.858276 329.504700 2052.121094 335.858276 0.000000 2342.921143 318.111603 329.504700 2342.921143 318.111603 0.000000 2633.941162 305.432281 329.504700 2633.941162 305.432281 0.000000 2925.107178 297.823395 329.504700 2925.107178 297.823395 0.000000 3216.345215 295.286896 329.504700 3216.345215 295.286896 0.000000 3507.584229 297.823395 329.504700 3507.584229 297.823395 0.000000 3798.750000 305.432281 329.504700 3798.750000 305.432281 0.000000 4089.769287 318.111603 329.504700 4089.769287 318.111603 0.000000 4380.569824 335.858276 329.504700 4380.569824 335.858276 0.000000 "
								            />
							</IndexedFaceSet>
						</Shape>
					</Group>
				</Transform>
			</Transform>
			<Transform DEF="group_0_002_TRANSFORM"
			           translation="-2558.613037 -0.000000 -946.850342"
			           scale="1.000000 1.000000 1.000000"
			           rotation="1.000000 0.000000 0.000000 0.000000"
			           >
				<Transform DEF="group_0_002_ifs_TRANSFORM"
				           translation="0.000044 0.000000 0.000032"
				           scale="1.000000 1.000000 1.000000"
				           rotation="1.000000 0.000000 0.000000 0.000000"
				           >
					<Group DEF="group_ME_ID17">
						<Shape>
							<Appearance>
								<Material USE="MA_Type62_part_1" />
							</Appearance>
							<IndexedFaceSet solid="true"
							                creaseAngle="4.0000"
							                coordIndex="0 1 2 -1 1 0 3 -1 1 3 4 -1 1 4 5 -1 1 5 6 -1 1 6 7 -1 1 7 8 -1 1 8 9 -1 1 9 10 -1 1 10 11 -1 1 11 12 -1 1 12 13 -1 1 13 14 -1 1 14 15 -1 1 15 16 -1 16 15 17 -1 17 15 18 -1 16 17 19 -1 17 18 20 -1 20 18 21 -1 21 18 22 -1 21 22 23 -1 21 23 24 -1 21 24 25 -1 21 25 26 -1 21 26 27 -1 21 27 28 -1 21 28 29 -1 21 29 30 -1 21 30 31 -1 21 31 32 -1 33 34 35 -1 34 33 36 -1 36 33 37 -1 37 33 38 -1 39 40 41 -1 40 39 42 -1 43 42 39 -1 42 43 44 -1 45 44 43 -1 44 45 46 -1 46 47 48 -1 47 46 45 -1 48 49 50 -1 49 48 47 -1 50 51 52 -1 51 50 49 -1 52 53 54 -1 53 52 51 -1 54 55 56 -1 55 54 53 -1 56 57 58 -1 57 56 55 -1 58 59 60 -1 59 58 57 -1 60 61 62 -1 61 60 59 -1 62 63 64 -1 63 62 61 -1 65 66 67 -1 66 65 68 -1 67 66 69 -1 67 69 70 -1 70 69 71 -1 71 69 72 -1 72 69 73 -1 74 75 76 -1 75 74 77 -1 77 74 78 -1 76 75 79 -1 76 79 80 -1 80 79 81 -1 80 81 82 -1 80 82 83 -1 80 83 84 -1 84 83 85 -1 84 85 86 -1 84 86 87 -1 84 87 88 -1 88 87 89 -1 87 86 90 -1 90 86 73 -1 73 86 72 -1 90 73 91 -1 89 92 88 -1 92 89 93 -1 92 93 90 -1 92 90 91 -1 92 91 94 -1 92 94 95 -1 72 96 71 -1 97 77 78 -1 77 98 75 -1 98 77 99 -1 98 99 81 -1 81 99 100 -1 100 99 101 -1 81 100 102 -1 81 102 103 -1 81 103 104 -1 81 104 82 -1 105 100 101 -1 100 105 106 -1 64 105 107 -1 105 64 63 -1 105 63 106 -1 106 63 108 -1 108 63 109 -1 108 109 110 -1 110 109 65 -1 65 109 68 -1 68 109 111 -1 112 66 68 -1 74 113 114 -1 113 74 76 -1 114 115 116 -1 115 114 113 -1 116 117 118 -1 117 116 115 -1 118 119 120 -1 119 118 117 -1 120 121 122 -1 121 120 119 -1 122 123 124 -1 123 122 121 -1 124 125 126 -1 125 124 123 -1 126 127 128 -1 127 126 125 -1 128 129 130 -1 129 128 127 -1 131 129 132 -1 129 131 130 -1 133 132 134 -1 132 133 131 -1 135 134 136 -1 134 135 133 -1 137 138 139 -1 138 137 140 -1 140 137 141 -1 141 137 142 -1 142 137 143 -1 143 137 144 -1 144 137 145 -1 145 137 146 -1 146 137 147 -1 147 137 148 -1 148 137 149 -1 150 151 152 -1 151 150 153 -1 153 150 154 -1 154 150 155 -1 155 150 156 -1 156 150 157 -1 157 150 158 -1 158 150 159 -1 159 150 160 -1 160 150 161 -1 161 150 162 -1 163 164 165 -1 164 163 166 -1 166 163 167 -1 168 169 170 -1 169 168 171 -1 172 173 174 -1 173 172 175 -1 175 172 176 -1 177 178 179 -1 178 177 180 -1 181 182 183 -1 182 181 184 -1 183 182 179 -1 179 182 177 -1 182 184 185 -1 185 184 186 -1 187 183 186 -1 183 187 181 -1 186 183 188 -1 186 188 178 -1 186 178 180 -1 186 180 185 -1 189 111 109 -1 111 189 190 -1 191 192 193 -1 192 191 194 -1 194 191 195 -1 196 197 198 -1 197 196 199 -1 200 201 202 -1 201 200 203 -1 203 200 204 -1 205 206 207 -1 206 205 208 -1 208 205 209 -1 209 205 210 -1 210 205 211 -1 211 205 212 -1 212 205 213 -1 213 205 214 -1 214 205 215 -1 215 205 216 -1 216 205 217 -1 217 205 218 -1 218 205 219 -1 219 205 220 -1 219 220 221 -1 221 220 222 -1 222 220 223 -1 221 222 224 -1 221 224 225 -1 225 224 226 -1 226 224 227 -1 227 224 228 -1 228 224 229 -1 228 229 230 -1 230 229 231 -1 231 229 232 -1 232 229 233 -1 233 229 234 -1 234 229 235 -1 235 229 236 -1 88 237 238 -1 237 88 92 -1 239 240 241 -1 240 239 242 -1 242 239 243 -1 242 243 244 -1 242 244 245 -1 245 244 246 -1 245 246 247 -1 245 247 248 -1 245 248 249 -1 245 249 250 -1 250 251 245 -1 252 253 254 -1 253 252 255 -1 255 252 256 -1 256 252 257 -1 257 252 258 -1 258 252 259 -1 259 252 260 -1 260 252 261 -1 261 252 262 -1 262 252 263 -1 263 252 264 -1 265 266 267 -1 266 265 268 -1 269 270 271 -1 270 269 272 -1 273 274 275 -1 274 273 276 -1 274 276 277 -1 274 277 278 -1 274 278 279 -1 274 279 280 -1 274 280 281 -1 274 281 282 -1 274 282 283 -1 274 283 284 -1 274 284 285 -1 286 287 288 -1 287 286 289 -1 290 190 189 -1 190 290 291 -1 292 293 294 -1 293 292 295 -1 296 297 298 -1 297 296 299 -1 300 301 302 -1 301 300 303 -1 303 300 304 -1 303 304 305 -1 306 307 308 -1 307 306 309 -1 309 310 307 -1 310 309 311 -1 311 312 310 -1 312 311 313 -1 314 312 313 -1 312 314 315 -1 316 315 314 -1 315 316 317 -1 318 317 316 -1 317 318 319 -1 320 319 318 -1 319 320 321 -1 322 321 320 -1 321 322 323 -1 324 323 322 -1 323 324 325 -1 326 325 324 -1 325 326 327 -1 238 327 326 -1 327 238 237 -1 328 291 290 -1 291 328 329 -1 330 329 328 -1 329 330 331 -1 332 331 330 -1 331 332 333 -1 334 333 332 -1 333 334 335 -1 336 335 334 -1 335 336 337 -1 338 337 336 -1 337 338 339 -1 340 339 338 -1 339 340 341 -1 341 342 343 -1 342 341 340 -1 343 344 345 -1 344 343 342 -1 345 346 347 -1 346 345 344 -1 348 349 350 -1 349 348 351 -1 349 351 352 -1 349 352 353 -1 349 353 354 -1 349 354 355 -1 349 355 356 -1 349 356 357 -1 349 357 358 -1 349 358 359 -1 349 359 360 -1 361 362 363 -1 364 365 366 -1 365 364 367 -1 365 367 368 -1 368 367 362 -1 368 362 361 -1 369 370 371 -1 370 369 372 -1 370 373 374 -1 373 370 375 -1 375 370 372 -1 375 372 376 -1 377 378 379 -1 378 377 380 -1 381 382 383 -1 382 381 384 -1 382 385 386 -1 385 382 387 -1 387 382 384 -1 387 384 388 -1 368 288 365 -1 288 368 286 -1 389 390 391 -1 390 389 392 -1 390 392 393 -1 390 393 394 -1 390 394 395 -1 390 395 396 -1 390 396 397 -1 390 397 398 -1 390 398 399 -1 390 399 400 -1 390 400 401 -1 402 403 404 -1 403 402 405 -1 406 407 408 -1 407 406 409 -1 410 411 412 -1 411 410 413 -1 414 415 416 -1 415 414 417 -1 418 419 420 -1 419 418 421 -1 "
							                >
								<Coordinate DEF="coords_ME_ID17"
								            point="1505.638062 434.301392 0.000000 2446.579102 386.534393 0.000000 1471.468018 386.534393 0.000000 1543.112061 478.968903 0.000000 1583.659912 520.261047 0.000000 1627.029907 557.922607 0.000000 1672.956055 591.721008 0.000000 1721.153076 621.447388 0.000000 1771.323120 646.918213 0.000000 1823.157104 667.976074 0.000000 1876.335083 684.490784 0.000000 1930.527100 696.360474 0.000000 1985.399048 703.511780 0.000000 2040.613037 705.900391 0.000000 2141.904053 705.900391 0.000000 2599.225098 705.900391 0.000000 2776.235107 609.594910 0.000000 3146.863037 674.873596 0.000000 4392.078125 705.900391 0.000000 3034.682129 544.429871 0.000000 3229.175049 386.534393 0.000000 4961.223145 386.534393 0.000000 4447.291016 703.511780 0.000000 4502.164062 696.360474 0.000000 4556.356445 684.490784 0.000000 4609.534180 667.976074 0.000000 4661.368164 646.918213 0.000000 4711.538086 621.447388 0.000000 4759.735352 591.721008 0.000000 4805.661133 557.922607 0.000000 4849.031250 520.261047 0.000000 4889.579102 478.968903 0.000000 4927.053223 434.301392 0.000000 4961.223145 386.534393 329.504700 3229.175049 386.534393 0.000000 4961.223145 386.534393 0.000000 2446.579102 386.534393 0.000000 1471.468018 386.534393 0.000000 1471.468018 386.534393 329.504700 1505.638062 434.301392 329.504700 1471.468018 386.534393 0.000000 1471.468018 386.534393 329.504700 1505.638062 434.301392 0.000000 1543.112061 478.968903 329.504700 1543.112061 478.968903 0.000000 1583.659912 520.261047 329.504700 1583.659912 520.261047 0.000000 1627.029907 557.922607 329.504700 1627.029907 557.922607 0.000000 1672.956055 591.721008 329.504700 1672.956055 591.721008 0.000000 1721.153076 621.447388 329.504700 1721.153076 621.447388 0.000000 1771.323120 646.918213 329.504700 1771.323120 646.918213 0.000000 1823.157104 667.976074 329.504700 1823.157104 667.976074 0.000000 1876.335083 684.490784 329.504700 1876.335083 684.490784 0.000000 1930.527100 696.360474 329.504700 1930.527100 696.360474 0.000000 1985.399048 703.511780 329.504700 1985.399048 703.511780 0.000000 2040.613037 705.900391 329.504700 2040.613037 705.900391 0.000000 2404.132080 705.900391 1320.324097 2567.218018 705.900391 1566.571045 2747.414062 705.900391 1591.986084 2175.436035 705.900391 1560.581055 2695.422119 705.900391 1739.462036 2784.837158 705.900391 1599.922119 2786.985107 705.900391 1604.334106 3216.345215 705.900391 1691.421021 3749.198242 705.900391 1739.462036 4392.078125 705.900391 0.000000 4336.777344 705.900391 59.909939 4392.078125 705.900391 329.504700 3749.198242 705.900391 34.563431 2599.225098 705.900391 0.000000 4336.777344 705.900391 329.504700 4392.078125 705.900391 707.329712 3963.492188 705.900391 329.504700 4028.559082 705.900391 578.129883 4154.208984 705.900391 949.227051 4392.078125 705.900391 1351.514038 4028.559082 705.900391 1320.324097 3685.277100 705.900391 1591.986084 3963.492188 705.900391 1568.949097 4392.078125 705.900391 1568.949097 4336.777344 705.900391 1568.949097 3963.492188 705.900391 1838.544067 3749.198242 705.900391 1863.891113 4392.078125 705.900391 1898.454102 4336.777344 705.900391 1838.544067 2741.589844 705.900391 1863.891113 2719.773193 705.900391 1898.454102 2789.224121 705.900391 1600.852051 2719.753174 705.900391 34.563431 3963.492188 705.900391 59.909939 3749.198242 705.900391 158.991791 3216.345215 705.900391 207.032700 2629.706055 705.900391 158.991791 3415.073242 705.900391 249.172287 3528.454102 705.900391 273.214203 3685.277100 705.900391 306.467896 2311.972168 705.900391 301.842804 2747.414062 705.900391 306.467896 2141.904053 705.900391 0.000000 2404.132080 705.900391 578.129883 2040.613037 705.900391 1568.949097 2278.482178 705.900391 949.227051 2040.613037 705.900391 1898.454102 2376.916992 705.900391 1640.979126 4447.291016 703.511780 329.504700 4447.291016 703.511780 0.000000 4502.164062 696.360474 329.504700 4502.164062 696.360474 0.000000 4556.356445 684.490784 329.504700 4556.356445 684.490784 0.000000 4609.534180 667.976074 329.504700 4609.534180 667.976074 0.000000 4661.368164 646.918213 329.504700 4661.368164 646.918213 0.000000 4711.538086 621.447388 329.504700 4711.538086 621.447388 0.000000 4759.735352 591.721008 329.504700 4759.735352 591.721008 0.000000 4805.661133 557.922607 329.504700 4805.661133 557.922607 0.000000 4849.031250 520.261047 329.504700 4849.031250 520.261047 0.000000 4889.579102 478.968903 0.000000 4889.579102 478.968903 329.504700 4927.053223 434.301392 0.000000 4927.053223 434.301392 329.504700 4961.223145 386.534393 0.000000 4961.223145 386.534393 329.504700 4961.223145 386.534393 329.504700 1761.612061 358.667786 329.504700 1471.468018 386.534393 329.504700 2052.121094 335.858276 329.504700 2342.921143 318.111603 329.504700 2633.941162 305.432281 329.504700 2925.107178 297.823395 329.504700 3216.345215 295.286896 329.504700 3507.584229 297.823395 329.504700 3798.750000 305.432281 329.504700 4089.769287 318.111603 329.504700 4380.569824 335.858276 329.504700 4671.079102 358.667786 329.504700 2040.613037 705.900391 329.504700 1505.638062 434.301392 329.504700 1471.468018 386.534393 329.504700 1543.112061 478.968903 329.504700 1583.659912 520.261047 329.504700 1627.029907 557.922607 329.504700 1672.956055 591.721008 329.504700 1721.153076 621.447388 329.504700 1771.323120 646.918213 329.504700 1823.157104 667.976074 329.504700 1876.335083 684.490784 329.504700 1930.527100 696.360474 329.504700 1985.399048 703.511780 329.504700 3749.198242 728.712280 34.563431 2390.855225 705.900391 34.563431 2390.855225 728.712280 34.563431 2719.753174 705.900391 34.563431 3749.198242 705.900391 34.563431 3749.198242 705.900391 34.563431 3749.198242 728.712280 158.991791 3749.198242 705.900391 158.991791 3749.198242 728.712280 34.563431 2629.706055 705.900391 158.991791 2390.855225 728.712280 158.991791 2390.855225 705.900391 158.991791 3749.198242 728.712280 158.991791 3749.198242 705.900391 158.991791 1723.199097 527.789001 485.040100 1788.882080 564.645813 1413.414062 1788.882080 564.645813 485.040100 1723.199097 527.789001 1413.414062 1471.468018 386.534393 329.504700 1555.913086 433.919189 485.040100 1955.141113 657.939697 485.040100 1471.468018 386.534393 1568.949097 1555.913086 433.919189 1413.414062 2040.613037 705.900391 1568.949097 2040.613037 705.900391 329.504700 1955.141113 657.939697 1413.414062 1985.399048 703.511780 1568.949097 1985.399048 703.511780 1898.454102 3749.198242 728.712280 1739.462036 2390.855225 705.900391 1739.462036 2390.855225 728.712280 1739.462036 2695.422119 705.900391 1739.462036 3749.198242 705.900391 1739.462036 3749.198242 705.900391 1739.462036 3749.198242 728.712280 1863.891113 3749.198242 705.900391 1863.891113 3749.198242 728.712280 1739.462036 2741.589844 705.900391 1863.891113 2390.855225 728.712280 1863.891113 2390.855225 705.900391 1863.891113 3749.198242 728.712280 1863.891113 3749.198242 705.900391 1863.891113 3354.439941 386.534393 1898.454102 1505.638062 434.301392 1898.454102 1471.468018 386.534393 1898.454102 1543.112061 478.968903 1898.454102 1583.659912 520.261047 1898.454102 1627.029907 557.922607 1898.454102 1672.956055 591.721008 1898.454102 1721.153076 621.447388 1898.454102 1771.323120 646.918213 1898.454102 1823.157104 667.976074 1898.454102 1876.335083 684.490784 1898.454102 1930.527100 696.360474 1898.454102 1985.399048 703.511780 1898.454102 2040.613037 705.900391 1898.454102 2719.773193 705.900391 1898.454102 3570.788086 583.998169 1898.454102 4392.078125 705.900391 1898.454102 4285.504395 641.635193 1898.454102 4104.984375 448.222900 1898.454102 4601.999023 386.534393 1898.454102 4447.291016 703.511780 1898.454102 4502.164062 696.360474 1898.454102 4556.356445 684.490784 1898.454102 4609.534180 667.976074 1898.454102 4961.223145 386.534393 1898.454102 4661.368164 646.918213 1898.454102 4711.538086 621.447388 1898.454102 4759.735352 591.721008 1898.454102 4805.661133 557.922607 1898.454102 4849.031250 520.261047 1898.454102 4889.579102 478.968903 1898.454102 4927.053223 434.301392 1898.454102 4447.291016 703.511780 1898.454102 4447.291016 703.511780 1568.949097 4392.078125 705.900391 329.504700 4961.223145 386.534393 505.663025 4961.223145 386.534393 329.504700 4836.623047 456.451202 505.663025 4392.078125 705.900391 707.329712 4591.449219 594.026611 984.197876 4836.623047 456.451202 1392.791016 4445.929688 675.682068 1131.887085 4484.689941 653.932861 1281.323120 4392.078125 705.900391 1351.514038 4392.078125 705.900391 1568.949097 4961.223145 386.534393 1568.949097 4961.223145 386.534393 1392.791016 4961.223145 386.534393 329.504700 4447.291016 703.511780 329.504700 4392.078125 705.900391 329.504700 4502.164062 696.360474 329.504700 4556.356445 684.490784 329.504700 4609.534180 667.976074 329.504700 4661.368164 646.918213 329.504700 4711.538086 621.447388 329.504700 4759.735352 591.721008 329.504700 4805.661133 557.922607 329.504700 4849.031250 520.261047 329.504700 4889.579102 478.968903 329.504700 4927.053223 434.301392 329.504700 2390.855225 728.712280 158.991791 2390.855225 705.900391 34.563431 2390.855225 705.900391 158.991791 2390.855225 728.712280 34.563431 2390.855225 728.712280 34.563431 3749.198242 728.712280 158.991791 3749.198242 728.712280 34.563431 2390.855225 728.712280 158.991791 1505.638062 434.301392 1568.949097 2040.613037 705.900391 1568.949097 1471.468018 386.534393 1568.949097 1543.112061 478.968903 1568.949097 1583.659912 520.261047 1568.949097 1627.029907 557.922607 1568.949097 1672.956055 591.721008 1568.949097 1721.153076 621.447388 1568.949097 1771.323120 646.918213 1568.949097 1823.157104 667.976074 1568.949097 1876.335083 684.490784 1568.949097 1930.527100 696.360474 1568.949097 1985.399048 703.511780 1568.949097 2040.613037 174.891006 1568.949097 1471.468018 386.534393 329.504700 2040.613037 174.891006 329.504700 1471.468018 386.534393 1568.949097 1930.527100 696.360474 1568.949097 1930.527100 696.360474 1898.454102 2390.855225 728.712280 1863.891113 2390.855225 705.900391 1739.462036 2390.855225 705.900391 1863.891113 2390.855225 728.712280 1739.462036 2390.855225 728.712280 1739.462036 3749.198242 728.712280 1863.891113 3749.198242 728.712280 1739.462036 2390.855225 728.712280 1863.891113 4961.223145 386.534393 1898.454102 1471.468018 386.534393 1568.949097 4961.223145 386.534393 1568.949097 1471.468018 386.534393 1898.454102 4601.999023 386.534393 1898.454102 3354.439941 386.534393 1898.454102 4961.223145 386.534393 1568.949097 4927.053223 434.301392 1898.454102 4961.223145 386.534393 1898.454102 4927.053223 434.301392 1568.949097 4889.579102 478.968903 1898.454102 4889.579102 478.968903 1568.949097 4849.031250 520.261047 1898.454102 4849.031250 520.261047 1568.949097 4805.661133 557.922607 1568.949097 4805.661133 557.922607 1898.454102 4759.735352 591.721008 1568.949097 4759.735352 591.721008 1898.454102 4711.538086 621.447388 1568.949097 4711.538086 621.447388 1898.454102 4661.368164 646.918213 1568.949097 4661.368164 646.918213 1898.454102 4609.534180 667.976074 1568.949097 4609.534180 667.976074 1898.454102 4556.356445 684.490784 1568.949097 4556.356445 684.490784 1898.454102 4502.164062 696.360474 1568.949097 4502.164062 696.360474 1898.454102 1876.335083 684.490784 1568.949097 1876.335083 684.490784 1898.454102 1823.157104 667.976074 1568.949097 1823.157104 667.976074 1898.454102 1771.323120 646.918213 1568.949097 1771.323120 646.918213 1898.454102 1721.153076 621.447388 1568.949097 1721.153076 621.447388 1898.454102 1672.956055 591.721008 1568.949097 1672.956055 591.721008 1898.454102 1627.029907 557.922607 1568.949097 1627.029907 557.922607 1898.454102 1583.659912 520.261047 1568.949097 1583.659912 520.261047 1898.454102 1543.112061 478.968903 1568.949097 1543.112061 478.968903 1898.454102 1505.638062 434.301392 1568.949097 1505.638062 434.301392 1898.454102 1471.468018 386.534393 1568.949097 1471.468018 386.534393 1898.454102 4447.291016 703.511780 1568.949097 4961.223145 386.534393 1568.949097 4392.078125 705.900391 1568.949097 4502.164062 696.360474 1568.949097 4556.356445 684.490784 1568.949097 4609.534180 667.976074 1568.949097 4661.368164 646.918213 1568.949097 4711.538086 621.447388 1568.949097 4759.735352 591.721008 1568.949097 4805.661133 557.922607 1568.949097 4849.031250 520.261047 1568.949097 4889.579102 478.968903 1568.949097 4927.053223 434.301392 1568.949097 4961.223145 386.534393 1568.949097 4826.267090 336.349396 1392.791016 4961.223145 386.534393 1392.791016 4961.223145 386.534393 505.663025 4392.078125 174.891006 329.504700 4961.223145 386.534393 329.504700 4826.267090 336.349396 505.663025 4392.078125 174.891006 1568.949097 4880.575195 232.879288 1392.791016 4961.223145 386.534393 1392.791016 4826.267090 336.349396 1392.791016 5041.871094 232.879288 1392.791016 4880.575195 540.189392 1392.791016 4836.623047 456.451202 1392.791016 5041.871094 540.189392 1392.791016 5122.519043 386.534393 1392.791016 4880.575195 540.189392 1392.791016 4836.623047 456.451202 505.663025 4836.623047 456.451202 1392.791016 4880.575195 540.189392 505.663025 4880.575195 540.189392 505.663025 4961.223145 386.534393 505.663025 4836.623047 456.451202 505.663025 5041.871094 540.189392 505.663025 4880.575195 232.879288 505.663025 4826.267090 336.349396 505.663025 5041.871094 232.879288 505.663025 5122.519043 386.534393 505.663025 1761.612061 358.667786 1568.949097 4961.223145 386.534393 1568.949097 1471.468018 386.534393 1568.949097 2052.121094 335.858276 1568.949097 2342.921143 318.111603 1568.949097 2633.941162 305.432281 1568.949097 2925.107178 297.823395 1568.949097 3216.345215 295.286896 1568.949097 3507.584229 297.823395 1568.949097 3798.750000 305.432281 1568.949097 4089.769287 318.111603 1568.949097 4380.569824 335.858276 1568.949097 4671.079102 358.667786 1568.949097 4826.267090 336.349396 1392.791016 4880.575195 232.879288 505.663025 4880.575195 232.879288 1392.791016 4826.267090 336.349396 505.663025 5041.871094 232.879288 1392.791016 4880.575195 232.879288 505.663025 5041.871094 232.879288 505.663025 4880.575195 232.879288 1392.791016 5041.871094 232.879288 505.663025 5122.519043 386.534393 1392.791016 5041.871094 232.879288 1392.791016 5122.519043 386.534393 505.663025 5122.519043 386.534393 505.663025 5041.871094 540.189392 1392.791016 5122.519043 386.534393 1392.791016 5041.871094 540.189392 505.663025 4880.575195 540.189392 505.663025 5041.871094 540.189392 1392.791016 5041.871094 540.189392 505.663025 4880.575195 540.189392 1392.791016 "
								            />
							</IndexedFaceSet>
						</Shape>
					</Group>
				</Transform>
			</Transform>
			<Transform DEF="group_0_001_TRANSFORM"
			           translation="-2558.613037 -0.000000 -946.850342"
			           scale="1.000000 1.000000 1.000000"
			           rotation="1.000000 0.000000 0.000000 0.000000"
			           >
				<Transform DEF="group_0_001_ifs_TRANSFORM"
				           translation="0.000044 0.000000 0.000032"
				           scale="1.000000 1.000000 1.000000"
				           rotation="1.000000 0.000000 0.000000 0.000000"
				           >
					<Group DEF="group_ME_ID11">
						<Shape>
							<Appearance>
								<Material USE="MA_Type62_part_2" />
							</Appearance>
							<IndexedFaceSet solid="true"
							                coordIndex="0 1 2 -1 1 0 3 -1 1 3 4 -1 "
							                >
								<Coordinate DEF="coords_ME_ID11"
								            point="3354.439941 386.534393 1898.454102 4104.984375 448.222900 1898.454102 3570.788086 583.998169 1898.454102 4601.999023 386.534393 1898.454102 4285.504395 641.635193 1898.454102 "
								            />
							</IndexedFaceSet>
						</Shape>
					</Group>
				</Transform>
			</Transform>
			<Transform DEF="group_0_TRANSFORM"
			           translation="-2558.613037 -0.000000 -946.850342"
			           scale="1.000000 1.000000 1.000000"
			           rotation="1.000000 0.000000 0.000000 0.000000"
			           >
				<Transform DEF="group_0_ifs_TRANSFORM"
				           translation="0.000044 0.000000 0.000032"
				           scale="1.000000 1.000000 1.000000"
				           rotation="1.000000 0.000000 0.000000 0.000000"
				           >
					<Group DEF="group_ME_ID3">
						<Shape>
							<Appearance>
								<Material USE="MA_Type62_part_2" />
							</Appearance>
							<IndexedFaceSet solid="true"
							                coordIndex="0 1 2 -1 1 0 3 -1 1 3 4 -1 "
							                >
								<Coordinate DEF="coords_ME_ID3"
								            point="4392.078125 705.900391 707.329712 4445.929688 675.682068 1131.887085 4591.449219 594.026611 984.197876 4392.078125 705.900391 1351.514038 4484.689941 653.932861 1281.323120 "
								            />
							</IndexedFaceSet>
						</Shape>
					</Group>
				</Transform>
			</Transform>
		</Transform>
	</Scene>
</X3D>